language,ocid,id,date,initiationType,sources/0/id,sources/0/name,sources/0/url,contracts/0/awardID,contracts/0/id,contracts/0/period/endDate,contracts/0/period/durationInDays,contracts/0/value/amount,contracts/0/amendments/0/date,contracts/0/amendments/0/description,contracts/0/amendments/0/amendsReleaseID,contracts/0/amendments/0/releaseID
es,ocds-03ad3f-342377,342377-shirosawa-company-saic-5-ampliacion-1543363200,2018-11-28T00:00:00Z,tender,dncp-sicp,Sistema de Información de las Contrataciones Públicas - DNCP,https://www.contrataciones.gov.py/,342377-lpn-n-02-2018-adquisicion-equipos-informaticos-sbe-1,342377-shirosawa-company-saic-5,,,64100000,2018-11-28T00:00:00Z,TIPO: Ampliación de Monto MONTO: 64100000,342377-lpn-n-02-2018-adquisicion-equipos-informaticos-sbe-1-1557326053.01704,342377-shirosawa-company-saic-5-ampliacion-1543363200
es,ocds-03ad3f-364511,364511-nestor-antonio-gonzalez-ortiz-1-ampliacion-1558051200,2019-05-17T00:00:00Z,tender,dncp-sicp,Sistema de Información de las Contrataciones Públicas - DNCP,https://www.contrataciones.gov.py/,364511-servicio-ceremonial-festejos-dia-trabajador-1,364511-nestor-antonio-gonzalez-ortiz-1,,,22050000,2019-05-17T00:00:00Z,TIPO: Ampliación de Monto MONTO: 22050000,364511-servicio-ceremonial-festejos-dia-trabajador-1-1556815433,364511-nestor-antonio-gonzalez-ortiz-1-ampliacion-1558051200
es,ocds-03ad3f-327416,327416-data-lab-sa-8-modificacion-1563321600,2019-07-17T00:00:00Z,tender,dncp-sicp,Sistema de Información de las Contrataciones Públicas - DNCP,https://www.contrataciones.gov.py/,327416-lpn-sbe-162-18-adquisicion-equipos-informaticos-comunicaciones-hospital-especialidad-1,327416-data-lab-sa-8,,,,2019-07-17T00:00:00Z,TIPO: ANEXO 1 - ADENDA AL CONTRATO 196/19,327416-lpn-sbe-162-18-adquisicion-equipos-informaticos-comunicaciones-hospital-especialidad-1-1558625842,327416-data-lab-sa-8-modificacion-1563321600
es,ocds-03ad3f-364250,364250-crispin-castillo-1-ampliacion-1562544000,2019-07-08T00:00:00Z,tender,dncp-sicp,Sistema de Información de las Contrataciones Públicas - DNCP,https://www.contrataciones.gov.py/,364250-reparacion-4-aulas-escuela-basica-n-4164-corazon-maria-localidad-2da-linea-caballero-1,364250-crispin-castillo-1,,,26287090,2019-07-08T00:00:00Z,TIPO: Ampliación de Monto MONTO: 26287090,364250-reparacion-4-aulas-escuela-basica-n-4164-corazon-maria-localidad-2da-linea-caballero-1-1556904442,364250-crispin-castillo-1-ampliacion-1562544000
es,ocds-03ad3f-345990,345990-jose-arnaldo-pereira-cardena-5-modificacion-1562112000,2019-07-03T00:00:00Z,tender,dncp-sicp,Sistema de Información de las Contrataciones Públicas - DNCP,https://www.contrataciones.gov.py/,345990-lpn-sbe-66-18-adquisicion-materiales-varios-ips-1,345990-jose-arnaldo-pereira-cardena-5,,,,2019-07-03T00:00:00Z,TIPO: ANEXO 1 - ADENDA AL CONTRATO 536 / 2018,345990-lpn-sbe-66-18-adquisicion-materiales-varios-ips-1-1557214789,345990-jose-arnaldo-pereira-cardena-5-modificacion-1562112000
es,ocds-03ad3f-342794,342794-blanca-teodolina-marin-riquelme-2-ampliacion-1558396800,2019-05-21T00:00:00Z,tender,dncp-sicp,Sistema de Información de las Contrataciones Públicas - DNCP,https://www.contrataciones.gov.py/,342794-cd-03-adquisicion-periodicos-1,342794-blanca-teodolina-marin-riquelme-2,,,6000000,2019-05-21T00:00:00Z,TIPO: Ampliación de Monto MONTO: 6000000,342794-cd-03-adquisicion-periodicos-1-1558371901.195,342794-blanca-teodolina-marin-riquelme-2-ampliacion-1558396800
es,ocds-03ad3f-351283,351283-inelec-sa-2-modificacion-1557360000,2019-05-09T00:00:00Z,tender,dncp-sicp,Sistema de Información de las Contrataciones Públicas - DNCP,https://www.contrataciones.gov.py/,351283-cve-n-06-18-contratacion-urgencia-impostergable-servicios-mantenimiento-ascensores-1,351283-inelec-sa-2,,,,2019-05-09T00:00:00Z,TIPO: MODIFICACION DE ADMINISTRADOR DE CONTRATO,351283-cve-n-06-18-contratacion-urgencia-impostergable-servicios-mantenimiento-ascensores-1-1558029423.976,351283-inelec-sa-2-modificacion-1557360000
es,ocds-03ad3f-365292,365292-daniel-galeano-godoy-1-ampliacion-1559865600,2019-06-07T00:00:00Z,tender,dncp-sicp,Sistema de Información de las Contrataciones Públicas - DNCP,https://www.contrataciones.gov.py/,365292-regularizacion-asfaltica-avda-santa-teresa-mcal-lopez-juan-e-o-leary-1,365292-daniel-galeano-godoy-1,,,72000000,2019-06-07T00:00:00Z,TIPO: Ampliación de Monto MONTO: 72000000,365292-regularizacion-asfaltica-avda-santa-teresa-mcal-lopez-juan-e-o-leary-1-1556893273,365292-daniel-galeano-godoy-1-ampliacion-1559865600
es,ocds-03ad3f-350753,350753-consorcio-norte-5-2-modificacion-1557100800,2019-05-06T00:00:00Z,tender,dncp-sicp,Sistema de Información de las Contrataciones Públicas - DNCP,https://www.contrataciones.gov.py/,350753-llamado-mopc-n-01-2018-licitacion-publica-nacional-empresas-constructoras-construcci-1,350753-consorcio-norte-5-2,,,,2019-05-06T00:00:00Z,TIPO: LPN DE EMPRESAS CONSTRUCTORAS PARA LA CONSTRUCCION DE LA CIRCUNVALACION SUR Y DESAGUE PLUVIAL,350753-llamado-mopc-n-01-2018-licitacion-publica-nacional-empresas-constructoras-construcci-1-1557763057.65,350753-consorcio-norte-5-2-modificacion-1557100800
es,ocds-03ad3f-360762,360762-ignacio-javier-edwars-rojas-1-ampliacion-1563408000,2019-07-18T00:00:00Z,tender,dncp-sicp,Sistema de Información de las Contrataciones Públicas - DNCP,https://www.contrataciones.gov.py/,360762-construccion-empedrado-calles-1,360762-ignacio-javier-edwars-rojas-1,,,31668556,2019-07-18T00:00:00Z,TIPO: Ampliación de Monto MONTO: 31668556,360762-construccion-empedrado-calles-1-1558720509,360762-ignacio-javier-edwars-rojas-1-ampliacion-1563408000
es,ocds-03ad3f-344322,344322-control-fluidos-1-modificacion-1559865600,2019-06-07T00:00:00Z,tender,dncp-sicp,Sistema de Información de las Contrataciones Públicas - DNCP,https://www.contrataciones.gov.py/,344322-lpn-sbe-60-18-mantenimiento-sala-maquinas-calderas-provision-repuestos-demanda-hospi-1,344322-control-fluidos-1,,,,2019-06-07T00:00:00Z,TIPO: ANEXO - ADENDA AL CONTRATO 150/19,344322-lpn-sbe-60-18-mantenimiento-sala-maquinas-calderas-provision-repuestos-demanda-hospi-1-1557156796,344322-control-fluidos-1-modificacion-1559865600
es,ocds-03ad3f-342388,342388-tapiti-s-r-l-2-ampliacion-1559001600,2019-05-28T00:00:00Z,tender,dncp-sicp,Sistema de Información de las Contrataciones Públicas - DNCP,https://www.contrataciones.gov.py/,342388-lpn-02-contratacion-servicio-seguridad-area-perimetral-centros-reclusion-1,342388-tapiti-s-r-l-2,,,802655550,2019-05-28T00:00:00Z,TIPO: Ampliación de Monto MONTO: 802655550,342388-lpn-02-contratacion-servicio-seguridad-area-perimetral-centros-reclusion-1-1558370960.768,342388-tapiti-s-r-l-2-ampliacion-1559001600
es,ocds-03ad3f-361611,361611-jose-orlando-bordenave-tufari-5-ampliacion-1561334400,2019-06-24T00:00:00Z,tender,dncp-sicp,Sistema de Información de las Contrataciones Públicas - DNCP,https://www.contrataciones.gov.py/,361611-mantenimientos-reparaciones-menores-edificios-locales-1,361611-jose-orlando-bordenave-tufari-5,,,10000000,2019-06-24T00:00:00Z,TIPO: Ampliación de Monto MONTO: 10000000,361611-mantenimientos-reparaciones-menores-edificios-locales-1-1558460585,361611-jose-orlando-bordenave-tufari-5-ampliacion-1561334400
es,ocds-03ad3f-357163,357163-fametal-sa-5-modificacion-1559779200,2019-06-06T00:00:00Z,tender,dncp-sicp,Sistema de Información de las Contrataciones Públicas - DNCP,https://www.contrataciones.gov.py/,357163-adquisicion-utensilios-cocina-comedor-1,357163-fametal-sa-5,,,,2019-06-06T00:00:00Z,TIPO: ADENDA 01 DEL CONTRATO PRINCIPAL N 74/2019 SUSCRIPTO CON LA EMPRESA FAMETAL S.A ADQUISICION DE UTENSILIOS DE COCINA.,357163-adquisicion-utensilios-cocina-comedor-1-1557418192,357163-fametal-sa-5-modificacion-1559779200
es,ocds-03ad3f-356376,356376-delfina-villar-1-ampliacion-1563321600,2019-07-17T00:00:00Z,tender,dncp-sicp,Sistema de Información de las Contrataciones Públicas - DNCP,https://www.contrataciones.gov.py/,356376-servicios-provision-colocacion-carteleria-senaletica-otros-snpp-ad-referendum-1,356376-delfina-villar-1,,,32000000,2019-07-17T00:00:00Z,TIPO: Ampliación de Monto MONTO: 32000000,356376-servicios-provision-colocacion-carteleria-senaletica-otros-snpp-ad-referendum-1-1557248882,356376-delfina-villar-1-ampliacion-1563321600
es,ocds-03ad3f-327416,327416-ps-line-sa-10-modificacion-1563321600,2019-07-17T00:00:00Z,tender,dncp-sicp,Sistema de Información de las Contrataciones Públicas - DNCP,https://www.contrataciones.gov.py/,327416-lpn-sbe-162-18-adquisicion-equipos-informaticos-comunicaciones-hospital-especialidad-1,327416-ps-line-sa-10,,,,2019-07-17T00:00:00Z,TIPO: ANEXO 1 - ADENDA AL CONTRATO 194/19,327416-lpn-sbe-162-18-adquisicion-equipos-informaticos-comunicaciones-hospital-especialidad-1-1558625842,327416-ps-line-sa-10-modificacion-1563321600
es,ocds-03ad3f-345990,345990-sas-paraguay-s-a-4-modificacion-1561680000,2019-06-28T00:00:00Z,tender,dncp-sicp,Sistema de Información de las Contrataciones Públicas - DNCP,https://www.contrataciones.gov.py/,345990-lpn-sbe-66-18-adquisicion-materiales-varios-ips-1,345990-sas-paraguay-s-a-4,,,,2019-06-28T00:00:00Z,TIPO: ANEXO 1 - ADENDA AL CONTRATO 537 / 2018,345990-lpn-sbe-66-18-adquisicion-materiales-varios-ips-1-1557214789,345990-sas-paraguay-s-a-4-modificacion-1561680000
es,ocds-03ad3f-310273,310273-dgr-internacional-s-r-l-2-modificacion-1559088000,2019-05-29T00:00:00Z,tender,dncp-sicp,Sistema de Información de las Contrataciones Públicas - DNCP,https://www.contrataciones.gov.py/,310273-lpn-sbe-105-16-contratacion-servicios-mantenimiento-preventivo-correctivo-provision-1,310273-dgr-internacional-s-r-l-2,,,,2019-05-29T00:00:00Z,TIPO: ADENDA DEL CONTRATO 018/17,310273-lpn-sbe-105-16-contratacion-servicios-mantenimiento-preventivo-correctivo-provision-1-1559233127.81,310273-dgr-internacional-s-r-l-2-modificacion-1559088000
es,ocds-03ad3f-364357,364357-sst-security-service-tecnology-s-a-1-ampliacion-1561680000,2019-06-28T00:00:00Z,tender,dncp-sicp,Sistema de Información de las Contrataciones Públicas - DNCP,https://www.contrataciones.gov.py/,364357-servicio-seguridad-vigilancia-snd-can-dos-meses-1,364357-sst-security-service-tecnology-s-a-1,,,56245356,2019-06-28T00:00:00Z,TIPO: Ampliación de Monto MONTO: 56245356,364357-servicio-seguridad-vigilancia-snd-can-dos-meses-1-1557416352,364357-sst-security-service-tecnology-s-a-1-ampliacion-1561680000
es,ocds-03ad3f-362250,362250-sd-ingenieria-s-a-1-ampliacion-1562025600,2019-07-02T00:00:00Z,tender,dncp-sicp,Sistema de Información de las Contrataciones Públicas - DNCP,https://www.contrataciones.gov.py/,362250-servicios-provision-e-instalacion-cabelado-estructurado-1,362250-sd-ingenieria-s-a-1,,,3000000,2019-07-02T00:00:00Z,TIPO: Ampliación de Monto MONTO: 3000000,362250-servicios-provision-e-instalacion-cabelado-estructurado-1-1558023642,362250-sd-ingenieria-s-a-1-ampliacion-1562025600
es,ocds-03ad3f-340691,340691-consorcio-3-bocas-2-modificacion-1556755200,2019-05-02T00:00:00Z,tender,dncp-sicp,Sistema de Información de las Contrataciones Públicas - DNCP,https://www.contrataciones.gov.py/,340691-lp1359-2018-construccion-linea-transmision-subterranea-66-kv-lambare-tres-bocas-1,340691-consorcio-3-bocas-2,,,,2019-05-02T00:00:00Z,TIPO: Modificación de las Condiciones de Pago para montos iguales o mayores a USD 100.000,340691-lp1359-2018-construccion-linea-transmision-subterranea-66-kv-lambare-tres-bocas-1-1557245075.824,340691-consorcio-3-bocas-2-modificacion-1556755200
es,ocds-03ad3f-345990,345990-ferreteria-internacional-s-a-3-modificacion-1561680000,2019-06-28T00:00:00Z,tender,dncp-sicp,Sistema de Información de las Contrataciones Públicas - DNCP,https://www.contrataciones.gov.py/,345990-lpn-sbe-66-18-adquisicion-materiales-varios-ips-1,345990-ferreteria-internacional-s-a-3,,,,2019-06-28T00:00:00Z,TIPO: ANEXO 1 - ADENDA AL CONTRATO 535 / 2018,345990-lpn-sbe-66-18-adquisicion-materiales-varios-ips-1-1557214789,345990-ferreteria-internacional-s-a-3-modificacion-1561680000
es,ocds-03ad3f-340358,340358-vicente-scavone-cia-comercial-e-industrial-sa-2-modificacion-1557273600,2019-05-08T00:00:00Z,tender,dncp-sicp,Sistema de Información de las Contrataciones Públicas - DNCP,https://www.contrataciones.gov.py/,340358-adquisicion-ketoprofeno-100-mg-amp-inyectable-1,340358-vicente-scavone-cia-comercial-e-industrial-sa-2,,,,2019-05-08T00:00:00Z,TIPO: POR LA CUAL LAS PARTES ACUERDAN LA  MODIFICACIÓN DE LA CLAUSULA N° 7 DEL CONTRATO PRINCIPAL.,340358-adquisicion-ketoprofeno-100-mg-amp-inyectable-1-1558025768.935,340358-vicente-scavone-cia-comercial-e-industrial-sa-2-modificacion-1557273600
es,ocds-03ad3f-364039,364039-castulo-gamarra-rolon-1-ampliacion-1559865600,2019-06-07T00:00:00Z,tender,dncp-sicp,Sistema de Información de las Contrataciones Públicas - DNCP,https://www.contrataciones.gov.py/,364039-construccion-empedrado-calle-isidoro-ovelar-tramo-1148-area-no-censada-cnia-1-naranj-1,364039-castulo-gamarra-rolon-1,,,9367500,2019-06-07T00:00:00Z,TIPO: Ampliación de Monto MONTO: 9367500,364039-construccion-empedrado-calle-isidoro-ovelar-tramo-1148-area-no-censada-cnia-1-naranj-1-1558543029,364039-castulo-gamarra-rolon-1-ampliacion-1559865600
es,ocds-03ad3f-361936,361936-ambrosio-coronel-1-ampliacion-1559865600,2019-06-07T00:00:00Z,tender,dncp-sicp,Sistema de Información de las Contrataciones Públicas - DNCP,https://www.contrataciones.gov.py/,361936-construccion-empedrado-calle-independencia-nacional-tramo-2526-2527-2528-2529-2841-1,361936-ambrosio-coronel-1,,,9947100,2019-06-07T00:00:00Z,TIPO: Ampliación de Monto MONTO: 9947100,361936-construccion-empedrado-calle-independencia-nacional-tramo-2526-2527-2528-2529-2841-1-1556902947,361936-ambrosio-coronel-1-ampliacion-1559865600
es,ocds-03ad3f-359230,359230-emporio-ferreteria-s-r-l-1-modificacion-1562284800,2019-07-05T00:00:00Z,tender,dncp-sicp,Sistema de Información de las Contrataciones Públicas - DNCP,https://www.contrataciones.gov.py/,359230-adquisicion-articulos-ferreteria-1,359230-emporio-ferreteria-s-r-l-1,,,,2019-07-05T00:00:00Z,TIPO: ADENDA DE CONTRATO,359230-adquisicion-articulos-ferreteria-1-1558455096,359230-emporio-ferreteria-s-r-l-1-modificacion-1562284800
es,ocds-03ad3f-327416,327416-sanri-sa-7-modificacion-1563321600,2019-07-17T00:00:00Z,tender,dncp-sicp,Sistema de Información de las Contrataciones Públicas - DNCP,https://www.contrataciones.gov.py/,327416-lpn-sbe-162-18-adquisicion-equipos-informaticos-comunicaciones-hospital-especialidad-1,327416-sanri-sa-7,,,,2019-07-17T00:00:00Z,TIPO: ANEXO 1 - ADENDA AL CONTRATO 197/19,327416-lpn-sbe-162-18-adquisicion-equipos-informaticos-comunicaciones-hospital-especialidad-1-1558625842,327416-sanri-sa-7-modificacion-1563321600
es,ocds-03ad3f-327416,327416-master-soft-srl-11-modificacion-1563321600,2019-07-17T00:00:00Z,tender,dncp-sicp,Sistema de Información de las Contrataciones Públicas - DNCP,https://www.contrataciones.gov.py/,327416-lpn-sbe-162-18-adquisicion-equipos-informaticos-comunicaciones-hospital-especialidad-1,327416-master-soft-srl-11,,,,2019-07-17T00:00:00Z,TIPO: ANEXO 1 - ADENDA AL CONTRATO N° 193/19 ,327416-lpn-sbe-162-18-adquisicion-equipos-informaticos-comunicaciones-hospital-especialidad-1-1558625842,327416-master-soft-srl-11-modificacion-1563321600
es,ocds-03ad3f-363578,363578-alexis-fabian-torres-gonzalez-1-ampliacion-1558915200,2019-05-27T00:00:00Z,tender,dncp-sicp,Sistema de Información de las Contrataciones Públicas - DNCP,https://www.contrataciones.gov.py/,363578-reparaciones-maquinarias-institucion-municipal-ayolas-1,363578-alexis-fabian-torres-gonzalez-1,,,4404600,2019-05-27T00:00:00Z,TIPO: Ampliación de Monto MONTO: 4404600,363578-reparaciones-maquinarias-institucion-municipal-ayolas-1-1556816183,363578-alexis-fabian-torres-gonzalez-1-ampliacion-1558915200
es,ocds-03ad3f-354855,354855-maria-concepcion-vera-grimaldi-2-ampliacion-1558569600,2019-05-23T00:00:00Z,tender,dncp-sicp,Sistema de Información de las Contrataciones Públicas - DNCP,https://www.contrataciones.gov.py/,354855-servicio-limpieza-oficina-central-regionales-puestos-control-deposito-ad-referendum-1,354855-maria-concepcion-vera-grimaldi-2,,,23450000,2019-05-23T00:00:00Z,TIPO: Ampliación de Monto MONTO: 23450000,354855-servicio-limpieza-oficina-central-regionales-puestos-control-deposito-ad-referendum-1-1558543572.77,354855-maria-concepcion-vera-grimaldi-2-ampliacion-1558569600
es,ocds-03ad3f-364025,364025-nidia-cristina-sosa-1-modificacion-1563235200,2019-07-16T00:00:00Z,tender,dncp-sicp,Sistema de Información de las Contrataciones Públicas - DNCP,https://www.contrataciones.gov.py/,364025-adquisicion-cortinados-snpp-plurianual-ad-referendum-1,364025-nidia-cristina-sosa-1,,,,2019-07-16T00:00:00Z,TIPO: Aclaración de la denominación del llamado en el encabezado del Contrato.,364025-adquisicion-cortinados-snpp-plurianual-ad-referendum-1-1557767225,364025-nidia-cristina-sosa-1-modificacion-1563235200
es,ocds-03ad3f-363551,363551-familiar-srl-1-ampliacion-1562112000,2019-07-03T00:00:00Z,tender,dncp-sicp,Sistema de Información de las Contrataciones Públicas - DNCP,https://www.contrataciones.gov.py/,363551-limpieza-mantenimiento-desagues-prevencion-colmatacion-cauces-distintos-barrios-ciud-1,363551-familiar-srl-1,,,32300000,2019-07-03T00:00:00Z,TIPO: Ampliación de Monto MONTO: 32300000,363551-limpieza-mantenimiento-desagues-prevencion-colmatacion-cauces-distintos-barrios-ciud-1-1558721552,363551-familiar-srl-1-ampliacion-1562112000
es,ocds-03ad3f-355234,355234-carlos-ramon-saldivar-romero-1-ampliacion-1563753600,2019-07-22T00:00:00Z,tender,dncp-sicp,Sistema de Información de las Contrataciones Públicas - DNCP,https://www.contrataciones.gov.py/,355234-consultoria-elaboracion-anteproyecto-construccion-universidad-politecnica-taiwan-par-1,355234-carlos-ramon-saldivar-romero-1,,,19900000,2019-07-22T00:00:00Z,TIPO: Ampliación de Monto MONTO: 19900000,355234-consultoria-elaboracion-anteproyecto-construccion-universidad-politecnica-taiwan-par-1-1556903791,355234-carlos-ramon-saldivar-romero-1-ampliacion-1563753600
es,ocds-03ad3f-342377,342377-office-compu-sa-3-ampliacion-1543363200,2018-11-28T00:00:00Z,tender,dncp-sicp,Sistema de Información de las Contrataciones Públicas - DNCP,https://www.contrataciones.gov.py/,342377-lpn-n-02-2018-adquisicion-equipos-informaticos-sbe-1,342377-office-compu-sa-6,,,179583327,2018-11-28T00:00:00Z,TIPO: Ampliación de Monto MONTO: 179583327,342377-lpn-n-02-2018-adquisicion-equipos-informaticos-sbe-1-1557326053.01704,342377-office-compu-sa-3-ampliacion-1543363200
