language,ocid,id,parties/0/id,parties/0/name,parties/0/identifier/id,parties/0/identifier/legalName,parties/0/identifier/scheme,parties/0/additionalIdentifiers/0/id,parties/0/additionalIdentifiers/0/legalName,parties/0/additionalIdentifiers/0/scheme,parties/0/roles
es,ocds-03ad3f-356662,356662-adquisicion-productos-textiles-1-1558547763,x_DNCP-SICP-CODE-21,Corte Suprema de Justicia (CSJ),21,Corte Suprema de Justicia (CSJ),x_DNCP-SICP-CODE,2019.13.1,Corte Suprema de Justicia,PY-PGN,buyer
es,ocds-03ad3f-365109,365109-adquisicion-recarga-extintores-1-1559147458,x_DNCP-SICP-CODE-304,Ministerio de Defensa Nacional (MDN),304,Ministerio de Defensa Nacional (MDN),x_DNCP-SICP-CODE,2019.12.5,Ministerio de Defensa Nacional,PY-PGN,buyer
es,ocds-03ad3f-361094,361094-mantenimiento-reparacion-esterilizador-residuos-patologicos-equipos-medicos-varios-1-1558709531,x_DNCP-SICP-CODE-304,Ministerio de Defensa Nacional (MDN),304,Ministerio de Defensa Nacional (MDN),x_DNCP-SICP-CODE,2019.12.5,Ministerio de Defensa Nacional,PY-PGN,buyer
es,ocds-03ad3f-343126,343126-adquisicion-alimentos-digesa-1-1559144688,x_DNCP-SICP-CODE-306,Ministerio de Salud Pública y Bienestar Social (MSPBS),306,Ministerio de Salud Pública y Bienestar Social (MSPBS),x_DNCP-SICP-CODE,2018.12.8,Ministerio de Salud Pública y Bienestar Social,PY-PGN,buyer
es,ocds-03ad3f-364454,364454-adquisicion-elementos-limpieza-1-1559061757,x_DNCP-SICP-CODE-306,Ministerio de Salud Pública y Bienestar Social (MSPBS),306,Ministerio de Salud Pública y Bienestar Social (MSPBS),x_DNCP-SICP-CODE,2019.12.8,Ministerio de Salud Pública y Bienestar Social,PY-PGN,buyer
es,ocds-03ad3f-356583,356583-mantenimientos-reparaciones-maquinarias-imprenta-1-1558029212,x_DNCP-SICP-CODE-301,Presidencia de la República,301,Presidencia de la República,x_DNCP-SICP-CODE,2019.12.1,Presidencia de la República,PY-PGN,buyer
es,ocds-03ad3f-359230,359230-adquisicion-articulos-ferreteria-1-1558455096,x_DNCP-SICP-CODE-21,Corte Suprema de Justicia (CSJ),21,Corte Suprema de Justicia (CSJ),x_DNCP-SICP-CODE,2019.13.1,Corte Suprema de Justicia,PY-PGN,buyer
es,ocds-03ad3f-359214,359214-adquisicion-utiles-oficina-1-1558534646,x_DNCP-SICP-CODE-21,Corte Suprema de Justicia (CSJ),21,Corte Suprema de Justicia (CSJ),x_DNCP-SICP-CODE,2019.13.1,Corte Suprema de Justicia,PY-PGN,buyer
es,ocds-03ad3f-360833,360833-adquisicion-e-instalacion-equipos-conexion-internet-via-wifi-sede-san-juan-bautista-1-1559214771,x_DNCP-SICP-CODE-226,Universidad Nacional de Asunción (UNA),226,Universidad Nacional de Asunción (UNA),x_DNCP-SICP-CODE,2019.28.1,Universidad Nacional de Asunción,PY-PGN,buyer
es,ocds-03ad3f-360456,360456-adquisicion-resmas-papel-1-1558954343,x_DNCP-SICP-CODE-301,Presidencia de la República,301,Presidencia de la República,x_DNCP-SICP-CODE,2019.12.1,Presidencia de la República,PY-PGN,buyer
es,ocds-03ad3f-363197,363197-contratacion-servicio-mantenimiento-reparacion-equipos-medicos-servicio-hemodialisis-1-1556801659,x_DNCP-SICP-CODE-299,Ministerio del Interior,299,Ministerio del Interior,x_DNCP-SICP-CODE,2019.12.3,Ministerio del Interior,PY-PGN,buyer
es,ocds-03ad3f-359334,359334-adquisicion-uniformes-agentes-especiales-senad-1-1557248604,x_DNCP-SICP-CODE-301,Presidencia de la República,301,Presidencia de la República,x_DNCP-SICP-CODE,2019.12.1,Presidencia de la República,PY-PGN,buyer
es,ocds-03ad3f-356608,356608-provision-utiles-oficina-tinta-toners-1-1558602078,x_DNCP-SICP-CODE-230,Universidad Nacional del Este (UNE),230,Universidad Nacional del Este (UNE),x_DNCP-SICP-CODE,2019.28.2,Universidad Nacional del Este,PY-PGN,buyer
es,ocds-03ad3f-359219,359219-adquisicion-equipos-oficina-computacion-1-1557412983,x_DNCP-SICP-CODE-21,Corte Suprema de Justicia (CSJ),21,Corte Suprema de Justicia (CSJ),x_DNCP-SICP-CODE,2019.13.1,Corte Suprema de Justicia,PY-PGN,buyer
es,ocds-03ad3f-355617,355617-contratacion-servicios-limpieza-integral-edificio-sinafocal-ad-referendum-plurianual-1-1558374951,x_DNCP-SICP-CODE-355,"Ministerio de Trabajo, Empleo y Seguridad Social (MTESS)",355,"Ministerio de Trabajo, Empleo y Seguridad Social (MTESS)",x_DNCP-SICP-CODE,2019.12.16,"Ministerio de Trabajo, Empleo y Seguridad Social",PY-PGN,buyer
es,ocds-03ad3f-360917,360917-adquisicion-insumos-oficinas-1-1558716692,x_DNCP-SICP-CODE-334,Universidad Nacional de Caaguazu (UNCA),334,Universidad Nacional de Caaguazu (UNCA),x_DNCP-SICP-CODE,2019.28.7,Universidad Nacional de Caaguazu,PY-PGN,buyer
es,ocds-03ad3f-363192,363192-adq-productos-textiles-vestuario-1-1558030112,x_DNCP-SICP-CODE-21,Corte Suprema de Justicia (CSJ),21,Corte Suprema de Justicia (CSJ),x_DNCP-SICP-CODE,2019.13.1,Corte Suprema de Justicia,PY-PGN,buyer
es,ocds-03ad3f-363388,363388-adq-servicio-webhosting-dominio-pagina-web-institucional-1-1558028628,x_DNCP-SICP-CODE-21,Corte Suprema de Justicia (CSJ),21,Corte Suprema de Justicia (CSJ),x_DNCP-SICP-CODE,2019.13.1,Corte Suprema de Justicia,PY-PGN,buyer
es,ocds-03ad3f-358418,358418-seguro-vehiculo-1-1558640169,x_DNCP-SICP-CODE-226,Universidad Nacional de Asunción (UNA),226,Universidad Nacional de Asunción (UNA),x_DNCP-SICP-CODE,2019.28.1,Universidad Nacional de Asunción,PY-PGN,buyer
es,ocds-03ad3f-358854,358854-adquisicion-insumos-limpieza-1-1557763377,x_DNCP-SICP-CODE-301,Presidencia de la República,301,Presidencia de la República,x_DNCP-SICP-CODE,2019.12.1,Presidencia de la República,PY-PGN,buyer
es,ocds-03ad3f-361006,361006-adquisicion-articulos-ferreteria-plomeria-herreria-facultad-derecho-una-1-1559046317,x_DNCP-SICP-CODE-226,Universidad Nacional de Asunción (UNA),226,Universidad Nacional de Asunción (UNA),x_DNCP-SICP-CODE,2019.28.1,Universidad Nacional de Asunción,PY-PGN,buyer
es,ocds-03ad3f-357117,357117-servicios-organizacion-integral-eventos-secretaria-nacional-cultura-1-1557152290,x_DNCP-SICP-CODE-301,Presidencia de la República,301,Presidencia de la República,x_DNCP-SICP-CODE,2019.12.1,Presidencia de la República,PY-PGN,buyer
es,ocds-03ad3f-359004,359004-adquisicion-placas-radiograficas-hospital-clinicas-2019-2020-1-1558082015,x_DNCP-SICP-CODE-226,Universidad Nacional de Asunción (UNA),226,Universidad Nacional de Asunción (UNA),x_DNCP-SICP-CODE,2019.28.1,Universidad Nacional de Asunción,PY-PGN,buyer
es,ocds-03ad3f-355535,355535-servicio-mantenimiento-reparacion-equipos-acondicionadores-aire-1-1557242773,x_DNCP-SICP-CODE-298,Congreso Nacional,298,Congreso Nacional,x_DNCP-SICP-CODE,2019.11.1,Congreso Nacional,PY-PGN,buyer
es,ocds-03ad3f-363587,363587-impresion-revistas-ad-referendum-modificacion-presupuestaria-1-1557337588,x_DNCP-SICP-CODE-226,Universidad Nacional de Asunción (UNA),226,Universidad Nacional de Asunción (UNA),x_DNCP-SICP-CODE,2019.28.1,Universidad Nacional de Asunción,PY-PGN,buyer
es,ocds-03ad3f-361767,361767-adquisicion-semillas-facultad-ciencias-veterinarias-una-1-1558711954,x_DNCP-SICP-CODE-226,Universidad Nacional de Asunción (UNA),226,Universidad Nacional de Asunción (UNA),x_DNCP-SICP-CODE,2019.28.1,Universidad Nacional de Asunción,PY-PGN,buyer
es,ocds-03ad3f-356791,356791-mantenimientos-reparaciones-sistema-integral-alta-seguridad-1-1559238268,x_DNCP-SICP-CODE-301,Presidencia de la República,301,Presidencia de la República,x_DNCP-SICP-CODE,2019.12.1,Presidencia de la República,PY-PGN,buyer
es,ocds-03ad3f-364357,364357-servicio-seguridad-vigilancia-snd-can-dos-meses-1-1557416352,x_DNCP-SICP-CODE-301,Presidencia de la República,301,Presidencia de la República,x_DNCP-SICP-CODE,2019.12.1,Presidencia de la República,PY-PGN,buyer
es,ocds-03ad3f-333891,333891-adquisicion-reactivos-laboratorio-digesa-1-1558543175,x_DNCP-SICP-CODE-306,Ministerio de Salud Pública y Bienestar Social (MSPBS),306,Ministerio de Salud Pública y Bienestar Social (MSPBS),x_DNCP-SICP-CODE,2017.12.8,Ministerio de Salud Pública y Bienestar Social,PY-PGN,buyer
es,ocds-03ad3f-361622,361622-adquisicion-repuestos-accesorios-menores-vehiculos-plurianual-1-1559236800,x_DNCP-SICP-CODE-304,Ministerio de Defensa Nacional (MDN),304,Ministerio de Defensa Nacional (MDN),x_DNCP-SICP-CODE,2019.12.5,Ministerio de Defensa Nacional,PY-PGN,buyer
es,ocds-03ad3f-356269,356269-adquisicion-antivirus-1-1557421911,x_DNCP-SICP-CODE-301,Presidencia de la República,301,Presidencia de la República,x_DNCP-SICP-CODE,2019.12.1,Presidencia de la República,PY-PGN,buyer
es,ocds-03ad3f-359007,359007-adquisicion-impresos-facultad-ciencias-medicas-2019-2020-1-1558116181,x_DNCP-SICP-CODE-226,Universidad Nacional de Asunción (UNA),226,Universidad Nacional de Asunción (UNA),x_DNCP-SICP-CODE,2019.28.1,Universidad Nacional de Asunción,PY-PGN,buyer
es,ocds-03ad3f-338641,338641-contratacion-seguro-vehiculos-equipos-informaticos-ad-referendum-3-1557135197,x_DNCP-SICP-CODE-306,Ministerio de Salud Pública y Bienestar Social (MSPBS),306,Ministerio de Salud Pública y Bienestar Social (MSPBS),x_DNCP-SICP-CODE,2019.12.8,Ministerio de Salud Pública y Bienestar Social,PY-PGN,buyer
es,ocds-03ad3f-356349,356349-adquisicion-utiles-oficina-resmas-papel-criterios-sustentabilidad-1-1557250508,x_DNCP-SICP-CODE-301,Presidencia de la República,301,Presidencia de la República,x_DNCP-SICP-CODE,2019.12.1,Presidencia de la República,PY-PGN,buyer
es,ocds-03ad3f-360758,360758-adquisicion-equipos-facultad-derecho-ciencias-sociales-una-1-1557757690,x_DNCP-SICP-CODE-226,Universidad Nacional de Asunción (UNA),226,Universidad Nacional de Asunción (UNA),x_DNCP-SICP-CODE,2019.28.1,Universidad Nacional de Asunción,PY-PGN,buyer
es,ocds-03ad3f-365126,365126-fabricadora-hielo-1-1559213373,x_DNCP-SICP-CODE-304,Ministerio de Defensa Nacional (MDN),304,Ministerio de Defensa Nacional (MDN),x_DNCP-SICP-CODE,2019.12.5,Ministerio de Defensa Nacional,PY-PGN,buyer
es,ocds-03ad3f-357491,357491-servicio-mantenimiento-reparacion-vehiculos-oficiales-pgr-1-1558364246,x_DNCP-SICP-CODE-301,Presidencia de la República,301,Presidencia de la República,x_DNCP-SICP-CODE,2019.12.1,Presidencia de la República,PY-PGN,buyer
es,ocds-03ad3f-364349,364349-adquisicion-licencia-software-antiplagio-1-1558603087,x_DNCP-SICP-CODE-226,Universidad Nacional de Asunción (UNA),226,Universidad Nacional de Asunción (UNA),x_DNCP-SICP-CODE,2019.28.1,Universidad Nacional de Asunción,PY-PGN,buyer
es,ocds-03ad3f-355839,355839-mantenimiento-reparacion-equipos-informaticos-1-1556904213,x_DNCP-SICP-CODE-304,Ministerio de Defensa Nacional (MDN),304,Ministerio de Defensa Nacional (MDN),x_DNCP-SICP-CODE,2019.12.5,Ministerio de Defensa Nacional,PY-PGN,buyer
es,ocds-03ad3f-358360,358360-reparacion-provision-repuestos-equipo-resonancia-magnetica-marca-philips-1-1558111971,x_DNCP-SICP-CODE-226,Universidad Nacional de Asunción (UNA),226,Universidad Nacional de Asunción (UNA),x_DNCP-SICP-CODE,2019.28.1,Universidad Nacional de Asunción,PY-PGN,buyer
es,ocds-03ad3f-361669,361669-servicios-produccion-difusion-spot-publicitario-institucional-1-1558686763,x_DNCP-SICP-CODE-301,Presidencia de la República,301,Presidencia de la República,x_DNCP-SICP-CODE,2019.12.1,Presidencia de la República,PY-PGN,buyer
es,ocds-03ad3f-364141,364141-adquisicion-muebles-laboratorio-1-1558112317,x_DNCP-SICP-CODE-334,Universidad Nacional de Caaguazu (UNCA),334,Universidad Nacional de Caaguazu (UNCA),x_DNCP-SICP-CODE,2019.28.7,Universidad Nacional de Caaguazu,PY-PGN,buyer
es,ocds-03ad3f-359221,359221-mantenimiento-preventivo-reparador-generador-1-1558685642,x_DNCP-SICP-CODE-21,Corte Suprema de Justicia (CSJ),21,Corte Suprema de Justicia (CSJ),x_DNCP-SICP-CODE,2019.13.1,Corte Suprema de Justicia,PY-PGN,buyer
es,ocds-03ad3f-361557,361557-adquisicion-vehiculos-militares-1-1556784016,x_DNCP-SICP-CODE-304,Ministerio de Defensa Nacional (MDN),304,Ministerio de Defensa Nacional (MDN),x_DNCP-SICP-CODE,2019.12.5,Ministerio de Defensa Nacional,PY-PGN,buyer
es,ocds-03ad3f-362463,362463-adquisicion-ups-1-1558457422,x_DNCP-SICP-CODE-226,Universidad Nacional de Asunción (UNA),226,Universidad Nacional de Asunción (UNA),x_DNCP-SICP-CODE,2019.28.1,Universidad Nacional de Asunción,PY-PGN,buyer
es,ocds-03ad3f-363414,363414-mant-reparaciones-menores-fotocopiadoras-otros-equipos-1-1558972884,x_DNCP-SICP-CODE-21,Corte Suprema de Justicia (CSJ),21,Corte Suprema de Justicia (CSJ),x_DNCP-SICP-CODE,2019.13.1,Corte Suprema de Justicia,PY-PGN,buyer
es,ocds-03ad3f-365201,365201-servicio-mantenimientos-reparaciones-fada-1-1558623523,x_DNCP-SICP-CODE-226,Universidad Nacional de Asunción (UNA),226,Universidad Nacional de Asunción (UNA),x_DNCP-SICP-CODE,2019.28.1,Universidad Nacional de Asunción,PY-PGN,buyer
es,ocds-03ad3f-357195,357195-consultoria-analisis-patologico-estructura-bloque-b-verificacion-sistema-electrico-1-1558107169,x_DNCP-SICP-CODE-299,Ministerio del Interior,299,Ministerio del Interior,x_DNCP-SICP-CODE,2019.12.3,Ministerio del Interior,PY-PGN,buyer
es,ocds-03ad3f-361396,361396-adquisicion-utiles-oficina-1-1556905811,x_DNCP-SICP-CODE-304,Ministerio de Defensa Nacional (MDN),304,Ministerio de Defensa Nacional (MDN),x_DNCP-SICP-CODE,2019.12.5,Ministerio de Defensa Nacional,PY-PGN,buyer
es,ocds-03ad3f-361715,361715-adquisicion-cubiertas-camaras-1-1558452943,x_DNCP-SICP-CODE-21,Corte Suprema de Justicia (CSJ),21,Corte Suprema de Justicia (CSJ),x_DNCP-SICP-CODE,2019.13.1,Corte Suprema de Justicia,PY-PGN,buyer
es,ocds-03ad3f-364648,364648-seguro-vehiculos-1-1557308003,x_DNCP-SICP-CODE-301,Presidencia de la República,301,Presidencia de la República,x_DNCP-SICP-CODE,2019.12.1,Presidencia de la República,PY-PGN,buyer
es,ocds-03ad3f-358753,358753-adquisicion-articulos-ferreteria-1-1558432720,x_DNCP-SICP-CODE-230,Universidad Nacional del Este (UNE),230,Universidad Nacional del Este (UNE),x_DNCP-SICP-CODE,2019.28.2,Universidad Nacional del Este,PY-PGN,buyer
es,ocds-03ad3f-359216,359216-co-n-05-2019-servicio-catering-ceremonial-1-1558030571,x_DNCP-SICP-CODE-21,Corte Suprema de Justicia (CSJ),21,Corte Suprema de Justicia (CSJ),x_DNCP-SICP-CODE,2019.13.1,Corte Suprema de Justicia,PY-PGN,buyer
es,ocds-03ad3f-359779,359779-adquisicion-elementos-limpieza-1-1557335318,x_DNCP-SICP-CODE-21,Corte Suprema de Justicia (CSJ),21,Corte Suprema de Justicia (CSJ),x_DNCP-SICP-CODE,2019.13.1,Corte Suprema de Justicia,PY-PGN,buyer
es,ocds-03ad3f-362038,362038-refacciones-set-mh-1-1558633959,x_DNCP-SICP-CODE-305,Ministerio de Hacienda,305,Ministerio de Hacienda,x_DNCP-SICP-CODE,2019.12.6,Ministerio de Hacienda,PY-PGN,buyer
es,ocds-03ad3f-363426,363426-contratacion-servicio-fotocopiado-e-impresiones-1-1558028706,x_DNCP-SICP-CODE-301,Presidencia de la República,301,Presidencia de la República,x_DNCP-SICP-CODE,2019.12.1,Presidencia de la República,PY-PGN,buyer
es,ocds-03ad3f-365420,365420-1556794921,x_DNCP-SICP-CODE-306,Ministerio de Salud Pública y Bienestar Social (MSPBS),306,Ministerio de Salud Pública y Bienestar Social (MSPBS),x_DNCP-SICP-CODE,2019.12.8,Ministerio de Salud Pública y Bienestar Social,PY-PGN,buyer
es,ocds-03ad3f-355739,355739-cd-n-01-2019-servicio-reparacion-techado-metalico-juzgado-1-instancia-minga-pora-ref-1-1558952947,x_DNCP-SICP-CODE-21,Corte Suprema de Justicia (CSJ),21,Corte Suprema de Justicia (CSJ),x_DNCP-SICP-CODE,2019.13.1,Corte Suprema de Justicia,PY-PGN,buyer
es,ocds-03ad3f-358956,358956-co-n-03-2019-adquisicion-camioneta-sbe-ad-referendum-1-1557740991,x_DNCP-SICP-CODE-21,Corte Suprema de Justicia (CSJ),21,Corte Suprema de Justicia (CSJ),x_DNCP-SICP-CODE,2019.13.1,Corte Suprema de Justicia,PY-PGN,buyer
es,ocds-03ad3f-361560,361560-adquisicion-repuestos-vehiculos-cubiertas-cod-13-1-1558084304,x_DNCP-SICP-CODE-226,Universidad Nacional de Asunción (UNA),226,Universidad Nacional de Asunción (UNA),x_DNCP-SICP-CODE,2019.28.1,Universidad Nacional de Asunción,PY-PGN,buyer
es,ocds-03ad3f-361815,361815-adquisicion-tintas-toner-facultad-ciencias-veterinarias-una-1-1559149627,x_DNCP-SICP-CODE-226,Universidad Nacional de Asunción (UNA),226,Universidad Nacional de Asunción (UNA),x_DNCP-SICP-CODE,2019.28.1,Universidad Nacional de Asunción,PY-PGN,buyer
es,ocds-03ad3f-364221,364221-impresion-formularios-recibo-dinero-1-1558104583,x_DNCP-SICP-CODE-299,Ministerio del Interior,299,Ministerio del Interior,x_DNCP-SICP-CODE,2019.12.3,Ministerio del Interior,PY-PGN,buyer
es,ocds-03ad3f-354704,354704-adqusicion-productos-papel-carton-e-impresos-1-1558712160,x_DNCP-SICP-CODE-304,Ministerio de Defensa Nacional (MDN),304,Ministerio de Defensa Nacional (MDN),x_DNCP-SICP-CODE,2019.12.5,Ministerio de Defensa Nacional,PY-PGN,buyer
es,ocds-03ad3f-359876,359876-adquisicion-impresiones-graficas-1-1559066318,x_DNCP-SICP-CODE-21,Corte Suprema de Justicia (CSJ),21,Corte Suprema de Justicia (CSJ),x_DNCP-SICP-CODE,2019.13.1,Corte Suprema de Justicia,PY-PGN,buyer
es,ocds-03ad3f-361147,361147-adquisicion-pasajes-terrestres-facultad-ciencias-sociales-una-1-1558971275,x_DNCP-SICP-CODE-226,Universidad Nacional de Asunción (UNA),226,Universidad Nacional de Asunción (UNA),x_DNCP-SICP-CODE,2019.28.1,Universidad Nacional de Asunción,PY-PGN,buyer
es,ocds-03ad3f-365586,365586-1557330548,x_DNCP-SICP-CODE-304,Ministerio de Defensa Nacional (MDN),304,Ministerio de Defensa Nacional (MDN),x_DNCP-SICP-CODE,2019.12.5,Ministerio de Defensa Nacional,PY-PGN,buyer
es,ocds-03ad3f-357704,357704-adquisicion-utiles-oficina-toner-productos-papel-carton-criterio-sustentabilidad-1-1558718558,x_DNCP-SICP-CODE-301,Presidencia de la República,301,Presidencia de la República,x_DNCP-SICP-CODE,2019.12.1,Presidencia de la República,PY-PGN,buyer
es,ocds-03ad3f-364203,364203-servicio-hospedaje-comando-ejercito-1-1558539317,x_DNCP-SICP-CODE-304,Ministerio de Defensa Nacional (MDN),304,Ministerio de Defensa Nacional (MDN),x_DNCP-SICP-CODE,2019.12.5,Ministerio de Defensa Nacional,PY-PGN,buyer
es,ocds-03ad3f-364328,364328-adquisicion-papeles-seguridad-suprema-corte-justicia-militar-1-1558349005,x_DNCP-SICP-CODE-304,Ministerio de Defensa Nacional (MDN),304,Ministerio de Defensa Nacional (MDN),x_DNCP-SICP-CODE,2019.12.5,Ministerio de Defensa Nacional,PY-PGN,buyer
es,ocds-03ad3f-357057,357057-servicios-seguros-1-1556905718,x_DNCP-SICP-CODE-230,Universidad Nacional del Este (UNE),230,Universidad Nacional del Este (UNE),x_DNCP-SICP-CODE,2019.28.2,Universidad Nacional del Este,PY-PGN,buyer
es,ocds-03ad3f-359226,359226-adquisicion-utiles-materiales-electricos-1-1558461385,x_DNCP-SICP-CODE-21,Corte Suprema de Justicia (CSJ),21,Corte Suprema de Justicia (CSJ),x_DNCP-SICP-CODE,2019.13.1,Corte Suprema de Justicia,PY-PGN,buyer
es,ocds-03ad3f-362036,362036-provision-agua-mineral-bidones-set-mh-1-1556815867,x_DNCP-SICP-CODE-305,Ministerio de Hacienda,305,Ministerio de Hacienda,x_DNCP-SICP-CODE,2019.12.6,Ministerio de Hacienda,PY-PGN,buyer
es,ocds-03ad3f-358805,358805-adquisicion-productos-textiles-calzados-1-1558699775,x_DNCP-SICP-CODE-21,Corte Suprema de Justicia (CSJ),21,Corte Suprema de Justicia (CSJ),x_DNCP-SICP-CODE,2019.13.1,Corte Suprema de Justicia,PY-PGN,buyer
es,ocds-03ad3f-358939,358939-adquisicion-insumos-materiales-electricos-ad-referendum-1-1558366560,x_DNCP-SICP-CODE-21,Corte Suprema de Justicia (CSJ),21,Corte Suprema de Justicia (CSJ),x_DNCP-SICP-CODE,2019.13.1,Corte Suprema de Justicia,PY-PGN,buyer
es,ocds-03ad3f-364025,364025-adquisicion-cortinados-snpp-plurianual-ad-referendum-1-1557767225,x_DNCP-SICP-CODE-355,"Ministerio de Trabajo, Empleo y Seguridad Social (MTESS)",355,"Ministerio de Trabajo, Empleo y Seguridad Social (MTESS)",x_DNCP-SICP-CODE,2019.12.16,"Ministerio de Trabajo, Empleo y Seguridad Social",PY-PGN,buyer
es,ocds-03ad3f-354085,354085-adquisicion-equipos-informaticos-licencias-snpp-ad-referendum-1-1559231952,x_DNCP-SICP-CODE-355,"Ministerio de Trabajo, Empleo y Seguridad Social (MTESS)",355,"Ministerio de Trabajo, Empleo y Seguridad Social (MTESS)",x_DNCP-SICP-CODE,2018.12.16,"Ministerio de Trabajo, Empleo y Seguridad Social",PY-PGN,buyer
es,ocds-03ad3f-357969,357969-adquisiciones-varias-productos-papel-carton-con-criterio-sustentabilidad-utiles-ofic-1-1558113412,x_DNCP-SICP-CODE-21,Corte Suprema de Justicia (CSJ),21,Corte Suprema de Justicia (CSJ),x_DNCP-SICP-CODE,2019.13.1,Corte Suprema de Justicia,PY-PGN,buyer
es,ocds-03ad3f-359051,359051-adquisicion-banner-e-impresiones-institucion-1-1556812363,x_DNCP-SICP-CODE-301,Presidencia de la República,301,Presidencia de la República,x_DNCP-SICP-CODE,2019.12.1,Presidencia de la República,PY-PGN,buyer
es,ocds-03ad3f-356425,356425-adquisicion-utiles-oficina-1-1557330371,x_DNCP-SICP-CODE-301,Presidencia de la República,301,Presidencia de la República,x_DNCP-SICP-CODE,2019.12.1,Presidencia de la República,PY-PGN,buyer
es,ocds-03ad3f-362033,362033-adquisicion-tintas-pinturas-colorantes-1-1558366109,x_DNCP-SICP-CODE-304,Ministerio de Defensa Nacional (MDN),304,Ministerio de Defensa Nacional (MDN),x_DNCP-SICP-CODE,2019.12.5,Ministerio de Defensa Nacional,PY-PGN,buyer
es,ocds-03ad3f-356715,356715-adquisicion-materiales-electricos-1-1558023927,x_DNCP-SICP-CODE-226,Universidad Nacional de Asunción (UNA),226,Universidad Nacional de Asunción (UNA),x_DNCP-SICP-CODE,2019.28.1,Universidad Nacional de Asunción,PY-PGN,buyer
es,ocds-03ad3f-357034,357034-adquisicion-elementos-limpieza-1-1558116058.02526,x_DNCP-SICP-CODE-301,Presidencia de la República,301,Presidencia de la República,x_DNCP-SICP-CODE,2019.12.1,Presidencia de la República,PY-PGN,buyer
es,ocds-03ad3f-360476,360476-alquiler-locales-asiento-juzgados-paz-deposito-1-1558542966,x_DNCP-SICP-CODE-21,Corte Suprema de Justicia (CSJ),21,Corte Suprema de Justicia (CSJ),x_DNCP-SICP-CODE,2019.13.1,Corte Suprema de Justicia,PY-PGN,buyer
es,ocds-03ad3f-357561,357561-servicio-vigilancia-1-1557153277,x_DNCP-SICP-CODE-301,Presidencia de la República,301,Presidencia de la República,x_DNCP-SICP-CODE,2019.12.1,Presidencia de la República,PY-PGN,buyer
es,ocds-03ad3f-358702,358702-contratacion-servicios-seguridad-vigilancia-1-1558628466,x_DNCP-SICP-CODE-301,Presidencia de la República,301,Presidencia de la República,x_DNCP-SICP-CODE,2019.12.1,Presidencia de la República,PY-PGN,buyer
es,ocds-03ad3f-359751,359751-adquisicion-utiles-oficina-tintas-cintas-toneres-1-1559206202,x_DNCP-SICP-CODE-21,Corte Suprema de Justicia (CSJ),21,Corte Suprema de Justicia (CSJ),x_DNCP-SICP-CODE,2019.13.1,Corte Suprema de Justicia,PY-PGN,buyer
es,ocds-03ad3f-360711,360711-adquisicion-resmas-1-1557402998,x_DNCP-SICP-CODE-21,Corte Suprema de Justicia (CSJ),21,Corte Suprema de Justicia (CSJ),x_DNCP-SICP-CODE,2019.13.1,Corte Suprema de Justicia,PY-PGN,buyer
es,ocds-03ad3f-358353,358353-adquisicion-productos-limpieza-1-1558544726,x_DNCP-SICP-CODE-226,Universidad Nacional de Asunción (UNA),226,Universidad Nacional de Asunción (UNA),x_DNCP-SICP-CODE,2019.28.1,Universidad Nacional de Asunción,PY-PGN,buyer
es,ocds-03ad3f-362039,362039-servicio-provision-cafe-maquina-expendedora-set-mh-1-1559219067,x_DNCP-SICP-CODE-305,Ministerio de Hacienda,305,Ministerio de Hacienda,x_DNCP-SICP-CODE,2019.12.6,Ministerio de Hacienda,PY-PGN,buyer
es,ocds-03ad3f-356154,356154-adquisicion-elementos-limpieza-casa-matriz-filiales-centro-adiestramiento-servicio-1-1558632938,x_DNCP-SICP-CODE-226,Universidad Nacional de Asunción (UNA),226,Universidad Nacional de Asunción (UNA),x_DNCP-SICP-CODE,2019.28.1,Universidad Nacional de Asunción,PY-PGN,buyer
es,ocds-03ad3f-358769,358769-adquisicion-insumos-limpieza-1-1557250424,x_DNCP-SICP-CODE-21,Corte Suprema de Justicia (CSJ),21,Corte Suprema de Justicia (CSJ),x_DNCP-SICP-CODE,2019.13.1,Corte Suprema de Justicia,PY-PGN,buyer
es,ocds-03ad3f-365035,365035-servicio-limpieza-integral-1-1558633386,x_DNCP-SICP-CODE-306,Ministerio de Salud Pública y Bienestar Social (MSPBS),306,Ministerio de Salud Pública y Bienestar Social (MSPBS),x_DNCP-SICP-CODE,2019.12.8,Ministerio de Salud Pública y Bienestar Social,PY-PGN,buyer
es,ocds-03ad3f-358093,358093-adquisicion-articulos-electricos-ferreteria-1-1556867976,x_DNCP-SICP-CODE-230,Universidad Nacional del Este (UNE),230,Universidad Nacional del Este (UNE),x_DNCP-SICP-CODE,2019.28.2,Universidad Nacional del Este,PY-PGN,buyer
es,ocds-03ad3f-358700,358700-adquisicion-insumos-limpieza-1-1557422032,x_DNCP-SICP-CODE-334,Universidad Nacional de Caaguazu (UNCA),334,Universidad Nacional de Caaguazu (UNCA),x_DNCP-SICP-CODE,2019.28.7,Universidad Nacional de Caaguazu,PY-PGN,buyer
es,ocds-03ad3f-359512,359512-herramientas-agricolas-menores-1-1558625876,x_DNCP-SICP-CODE-334,Universidad Nacional de Caaguazu (UNCA),334,Universidad Nacional de Caaguazu (UNCA),x_DNCP-SICP-CODE,2019.28.7,Universidad Nacional de Caaguazu,PY-PGN,buyer
es,ocds-03ad3f-355485,355485-adquisicion-reactivos-medicamentos-insumos-descartables-varios-ad-referendum-1-1556819072,x_DNCP-SICP-CODE-304,Ministerio de Defensa Nacional (MDN),304,Ministerio de Defensa Nacional (MDN),x_DNCP-SICP-CODE,2019.12.5,Ministerio de Defensa Nacional,PY-PGN,buyer
es,ocds-03ad3f-357963,357963-servicio-mantenimiento-fotocopiadoras-plurianual-1-1556876863,x_DNCP-SICP-CODE-21,Corte Suprema de Justicia (CSJ),21,Corte Suprema de Justicia (CSJ),x_DNCP-SICP-CODE,2019.13.1,Corte Suprema de Justicia,PY-PGN,buyer
es,ocds-03ad3f-364791,364791-1557392341,x_DNCP-SICP-CODE-306,Ministerio de Salud Pública y Bienestar Social (MSPBS),306,Ministerio de Salud Pública y Bienestar Social (MSPBS),x_DNCP-SICP-CODE,2019.12.8,Ministerio de Salud Pública y Bienestar Social,PY-PGN,buyer
es,ocds-03ad3f-353114,353114-adquisicion-resmas-papel-criterios-sustentabilidad-1-1558115278,x_DNCP-SICP-CODE-301,Presidencia de la República,301,Presidencia de la República,x_DNCP-SICP-CODE,2019.12.1,Presidencia de la República,PY-PGN,buyer
es,ocds-03ad3f-359905,359905-adquisicion-uniformes-otros-1-1557762506,x_DNCP-SICP-CODE-21,Corte Suprema de Justicia (CSJ),21,Corte Suprema de Justicia (CSJ),x_DNCP-SICP-CODE,2019.13.1,Corte Suprema de Justicia,PY-PGN,buyer
es,ocds-03ad3f-358909,358909-recarga-cartuchos-toner-impresoras-fotocopiadoras-casa-matriz-filiales-centro-adiest-1-1556812167,x_DNCP-SICP-CODE-226,Universidad Nacional de Asunción (UNA),226,Universidad Nacional de Asunción (UNA),x_DNCP-SICP-CODE,2019.28.1,Universidad Nacional de Asunción,PY-PGN,buyer
es,ocds-03ad3f-364004,364004-adquisicion-toner-cartuchos-tintas-armada-1-1556904001,x_DNCP-SICP-CODE-304,Ministerio de Defensa Nacional (MDN),304,Ministerio de Defensa Nacional (MDN),x_DNCP-SICP-CODE,2019.12.5,Ministerio de Defensa Nacional,PY-PGN,buyer
es,ocds-03ad3f-365348,365348-1557324768,x_DNCP-SICP-CODE-304,Ministerio de Defensa Nacional (MDN),304,Ministerio de Defensa Nacional (MDN),x_DNCP-SICP-CODE,2019.12.5,Ministerio de Defensa Nacional,PY-PGN,buyer
es,ocds-03ad3f-360447,360447-servicio-impresion-productos-artes-graficas-1-1559060373,x_DNCP-SICP-CODE-334,Universidad Nacional de Caaguazu (UNCA),334,Universidad Nacional de Caaguazu (UNCA),x_DNCP-SICP-CODE,2019.28.7,Universidad Nacional de Caaguazu,PY-PGN,buyer
es,ocds-03ad3f-363366,363366-adquisicion-maquinarias-e-implementos-varios-1-1559237947,x_DNCP-SICP-CODE-21,Corte Suprema de Justicia (CSJ),21,Corte Suprema de Justicia (CSJ),x_DNCP-SICP-CODE,2019.13.1,Corte Suprema de Justicia,PY-PGN,buyer
es,ocds-03ad3f-358425,358425-adquisicion-repuestos-equipos-informaticos-otros-1-1558621660,x_DNCP-SICP-CODE-226,Universidad Nacional de Asunción (UNA),226,Universidad Nacional de Asunción (UNA),x_DNCP-SICP-CODE,2019.28.1,Universidad Nacional de Asunción,PY-PGN,buyer
es,ocds-03ad3f-364535,364535-servicio-alquiler-equipo-radiologia-medica-generador-hospital-clinicas-1-1559230768,x_DNCP-SICP-CODE-226,Universidad Nacional de Asunción (UNA),226,Universidad Nacional de Asunción (UNA),x_DNCP-SICP-CODE,2019.28.1,Universidad Nacional de Asunción,PY-PGN,buyer
es,ocds-03ad3f-360570,360570-adquisicion-productos-papel-carton-resmas-papel-criterios-sustentabilidad-direccion-1-1557512058,x_DNCP-SICP-CODE-11,Ministerio de Justicia  (MJ),11,Ministerio de Justicia  (MJ),x_DNCP-SICP-CODE,2019.12.9,Ministerio de Justicia ,PY-PGN,buyer
es,ocds-03ad3f-361771,361771-adquisicion-cubiertas-baterias-accesorios-seguridad-vehiculos-facultad-ciencias-vete-1-1557247658,x_DNCP-SICP-CODE-226,Universidad Nacional de Asunción (UNA),226,Universidad Nacional de Asunción (UNA),x_DNCP-SICP-CODE,2019.28.1,Universidad Nacional de Asunción,PY-PGN,buyer
es,ocds-03ad3f-362179,362179-adquisicion-extintores-1-1557400570,x_DNCP-SICP-CODE-299,Ministerio del Interior,299,Ministerio del Interior,x_DNCP-SICP-CODE,2019.12.3,Ministerio del Interior,PY-PGN,buyer
es,ocds-03ad3f-362977,362977-servicio-mant-reparacion-vehiculos-1-1559130134,x_DNCP-SICP-CODE-21,Corte Suprema de Justicia (CSJ),21,Corte Suprema de Justicia (CSJ),x_DNCP-SICP-CODE,2019.13.1,Corte Suprema de Justicia,PY-PGN,buyer
es,ocds-03ad3f-364730,364730-servicio-hoteleria-1-1558603794,x_DNCP-SICP-CODE-304,Ministerio de Defensa Nacional (MDN),304,Ministerio de Defensa Nacional (MDN),x_DNCP-SICP-CODE,2019.12.5,Ministerio de Defensa Nacional,PY-PGN,buyer
es,ocds-03ad3f-357177,357177-adquisicion-proyectiles-materiales-seguridad-1-1557319684,x_DNCP-SICP-CODE-299,Ministerio del Interior,299,Ministerio del Interior,x_DNCP-SICP-CODE,2019.12.3,Ministerio del Interior,PY-PGN,buyer
es,ocds-03ad3f-360701,360701-renovacion-ampliacion-licencias-soporte-oracle-sistema-marangatu-sifen-set-mh-1-1558603952,x_DNCP-SICP-CODE-305,Ministerio de Hacienda,305,Ministerio de Hacienda,x_DNCP-SICP-CODE,2019.12.6,Ministerio de Hacienda,PY-PGN,buyer
es,ocds-03ad3f-363993,363993-adquisicion-sistema-refrigeracion-central-filtros-h-e-p-a-distribucion-gases-medicin-1-1558973496,x_DNCP-SICP-CODE-299,Ministerio del Interior,299,Ministerio del Interior,x_DNCP-SICP-CODE,2019.12.3,Ministerio del Interior,PY-PGN,buyer
es,ocds-03ad3f-358667,358667-adquisicion-pasaje-aereo-internacional-1-1558600775,x_DNCP-SICP-CODE-21,Corte Suprema de Justicia (CSJ),21,Corte Suprema de Justicia (CSJ),x_DNCP-SICP-CODE,2019.13.1,Corte Suprema de Justicia,PY-PGN,buyer
es,ocds-03ad3f-355934,355934-recarga-extintores-snpp-plurianual-1-1557154736,x_DNCP-SICP-CODE-355,"Ministerio de Trabajo, Empleo y Seguridad Social (MTESS)",355,"Ministerio de Trabajo, Empleo y Seguridad Social (MTESS)",x_DNCP-SICP-CODE,2019.12.16,"Ministerio de Trabajo, Empleo y Seguridad Social",PY-PGN,buyer
es,ocds-03ad3f-356264,356264-adquisicion-central-telefonica-ip-1-1557501234,x_DNCP-SICP-CODE-301,Presidencia de la República,301,Presidencia de la República,x_DNCP-SICP-CODE,2019.12.1,Presidencia de la República,PY-PGN,buyer
es,ocds-03ad3f-360717,360717-adquisicion-equipos-informaticos-1-1557405240,x_DNCP-SICP-CODE-21,Corte Suprema de Justicia (CSJ),21,Corte Suprema de Justicia (CSJ),x_DNCP-SICP-CODE,2019.13.1,Corte Suprema de Justicia,PY-PGN,buyer
es,ocds-03ad3f-358266,358266-adquisicion-elementos-limpieza-1-1559147460,x_DNCP-SICP-CODE-301,Presidencia de la República,301,Presidencia de la República,x_DNCP-SICP-CODE,2019.12.1,Presidencia de la República,PY-PGN,buyer
es,ocds-03ad3f-360763,360763-adquisicion-equipos-oficinas-1-1558622942,x_DNCP-SICP-CODE-334,Universidad Nacional de Caaguazu (UNCA),334,Universidad Nacional de Caaguazu (UNCA),x_DNCP-SICP-CODE,2019.28.7,Universidad Nacional de Caaguazu,PY-PGN,buyer
es,ocds-03ad3f-361525,361525-contratacion-servicios-publicidad-propaganda-cod-08-1-1559228680,x_DNCP-SICP-CODE-226,Universidad Nacional de Asunción (UNA),226,Universidad Nacional de Asunción (UNA),x_DNCP-SICP-CODE,2019.28.1,Universidad Nacional de Asunción,PY-PGN,buyer
es,ocds-03ad3f-338641,338641-cd-n-10-17adquisicion-esterilizador-biberones-cajas-instrumentales-1-1557135197,x_DNCP-SICP-CODE-306,Ministerio de Salud Pública y Bienestar Social (MSPBS),306,Ministerio de Salud Pública y Bienestar Social (MSPBS),x_DNCP-SICP-CODE,2019.12.8,Ministerio de Salud Pública y Bienestar Social,PY-PGN,buyer
es,ocds-03ad3f-357062,357062-adquisicion-medicamentos-1-1556869607,x_DNCP-SICP-CODE-301,Presidencia de la República,301,Presidencia de la República,x_DNCP-SICP-CODE,2019.12.1,Presidencia de la República,PY-PGN,buyer
es,ocds-03ad3f-358313,358313-adquisicion-accesorios-sanitarios-herrajes-1-1556807774,x_DNCP-SICP-CODE-226,Universidad Nacional de Asunción (UNA),226,Universidad Nacional de Asunción (UNA),x_DNCP-SICP-CODE,2019.28.1,Universidad Nacional de Asunción,PY-PGN,buyer
es,ocds-03ad3f-356617,356617-servicio-mantenimiento-preventivo-correctivo-sistema-seguridad-electronica-comunicac-1-1556886646,x_DNCP-SICP-CODE-21,Corte Suprema de Justicia (CSJ),21,Corte Suprema de Justicia (CSJ),x_DNCP-SICP-CODE,2019.13.1,Corte Suprema de Justicia,PY-PGN,buyer
es,ocds-03ad3f-361638,361638-adquisicion-productos-quimicos-varios-1-1559149490,x_DNCP-SICP-CODE-304,Ministerio de Defensa Nacional (MDN),304,Ministerio de Defensa Nacional (MDN),x_DNCP-SICP-CODE,2019.12.5,Ministerio de Defensa Nacional,PY-PGN,buyer
es,ocds-03ad3f-366239,366239-1559037536,x_DNCP-SICP-CODE-11,Ministerio de Justicia  (MJ),11,Ministerio de Justicia  (MJ),x_DNCP-SICP-CODE,2019.12.9,Ministerio de Justicia ,PY-PGN,buyer
es,ocds-03ad3f-355809,355809-servicio-limpieza-fumigacion-oficinas-senabico-ad-referendum-1-1556811987,x_DNCP-SICP-CODE-301,Presidencia de la República,301,Presidencia de la República,x_DNCP-SICP-CODE,2019.12.1,Presidencia de la República,PY-PGN,buyer
es,ocds-03ad3f-361056,361056-adquisicion-utiles-materiales-electricos-facultad-derecho-ciencias-sociales-una-1-1558974045,x_DNCP-SICP-CODE-226,Universidad Nacional de Asunción (UNA),226,Universidad Nacional de Asunción (UNA),x_DNCP-SICP-CODE,2019.28.1,Universidad Nacional de Asunción,PY-PGN,buyer
es,ocds-03ad3f-333891,333891-adquisicion-reactivos-laboratorio-digesa-3-1558543175,x_DNCP-SICP-CODE-306,Ministerio de Salud Pública y Bienestar Social (MSPBS),306,Ministerio de Salud Pública y Bienestar Social (MSPBS),x_DNCP-SICP-CODE,2017.12.8,Ministerio de Salud Pública y Bienestar Social,PY-PGN,buyer
es,ocds-03ad3f-360905,360905-1557330810,x_DNCP-SICP-CODE-304,Ministerio de Defensa Nacional (MDN),304,Ministerio de Defensa Nacional (MDN),x_DNCP-SICP-CODE,2019.12.5,Ministerio de Defensa Nacional,PY-PGN,buyer
es,ocds-03ad3f-363987,363987-adquisicion-periodicos-senatur-1-1558545377,x_DNCP-SICP-CODE-301,Presidencia de la República,301,Presidencia de la República,x_DNCP-SICP-CODE,2019.12.1,Presidencia de la República,PY-PGN,buyer
es,ocds-03ad3f-364516,364516-alquiler-local-direccion-pcpr-snpp-ad-referendum-1-1558028764,x_DNCP-SICP-CODE-355,"Ministerio de Trabajo, Empleo y Seguridad Social (MTESS)",355,"Ministerio de Trabajo, Empleo y Seguridad Social (MTESS)",x_DNCP-SICP-CODE,2019.12.16,"Ministerio de Trabajo, Empleo y Seguridad Social",PY-PGN,buyer
es,ocds-03ad3f-366322,366322-1559125820,x_DNCP-SICP-CODE-304,Ministerio de Defensa Nacional (MDN),304,Ministerio de Defensa Nacional (MDN),x_DNCP-SICP-CODE,2019.12.5,Ministerio de Defensa Nacional,PY-PGN,buyer
es,ocds-03ad3f-355536,355536-servicio-ceremonial-hospedaje-1-1557765076,x_DNCP-SICP-CODE-298,Congreso Nacional,298,Congreso Nacional,x_DNCP-SICP-CODE,2019.11.1,Congreso Nacional,PY-PGN,buyer
es,ocds-03ad3f-358416,358416-adquisicion-papeles-criterio-sustentabilidad-1-1558373703,x_DNCP-SICP-CODE-226,Universidad Nacional de Asunción (UNA),226,Universidad Nacional de Asunción (UNA),x_DNCP-SICP-CODE,2019.28.1,Universidad Nacional de Asunción,PY-PGN,buyer
es,ocds-03ad3f-361492,361492-mantenimiento-reparacion-vehiculos-plurianual-2019-2020-1-1559066191,x_DNCP-SICP-CODE-304,Ministerio de Defensa Nacional (MDN),304,Ministerio de Defensa Nacional (MDN),x_DNCP-SICP-CODE,2019.12.5,Ministerio de Defensa Nacional,PY-PGN,buyer
es,ocds-03ad3f-360927,360927-adquisicion-utiles-oficina-tintas-tonner-1-1559058176,x_DNCP-SICP-CODE-304,Ministerio de Defensa Nacional (MDN),304,Ministerio de Defensa Nacional (MDN),x_DNCP-SICP-CODE,2019.12.5,Ministerio de Defensa Nacional,PY-PGN,buyer
es,ocds-03ad3f-361833,361833-mantenimiento-obras-civiles-refacciones-pintura-1-1559117012,x_DNCP-SICP-CODE-21,Corte Suprema de Justicia (CSJ),21,Corte Suprema de Justicia (CSJ),x_DNCP-SICP-CODE,2019.13.1,Corte Suprema de Justicia,PY-PGN,buyer
es,ocds-03ad3f-356406,356406-licitacion-publica-nacional-01-2019-contratacion-seguro-medico-integral-funcionarios-1-1557733826,x_DNCP-SICP-CODE-355,"Ministerio de Trabajo, Empleo y Seguridad Social (MTESS)",355,"Ministerio de Trabajo, Empleo y Seguridad Social (MTESS)",x_DNCP-SICP-CODE,2019.12.16,"Ministerio de Trabajo, Empleo y Seguridad Social",PY-PGN,buyer
es,ocds-03ad3f-360380,360380-adquisicion-muebles-enseres-sedes-juzgados-circunscripcion-judicial-1-1559239848,x_DNCP-SICP-CODE-21,Corte Suprema de Justicia (CSJ),21,Corte Suprema de Justicia (CSJ),x_DNCP-SICP-CODE,2019.13.1,Corte Suprema de Justicia,PY-PGN,buyer
es,ocds-03ad3f-360842,360842-servicio-gastronomico-ceremonial-1-1559116993,x_DNCP-SICP-CODE-21,Corte Suprema de Justicia (CSJ),21,Corte Suprema de Justicia (CSJ),x_DNCP-SICP-CODE,2019.13.1,Corte Suprema de Justicia,PY-PGN,buyer
es,ocds-03ad3f-358451,358451-servicio-guardia-seguridad-facultad-ciencias-sociales-una-1-1556819214,x_DNCP-SICP-CODE-226,Universidad Nacional de Asunción (UNA),226,Universidad Nacional de Asunción (UNA),x_DNCP-SICP-CODE,2019.28.1,Universidad Nacional de Asunción,PY-PGN,buyer
es,ocds-03ad3f-357176,357176-adquisicion-cubiertas-plurianual-1-1557156623,x_DNCP-SICP-CODE-299,Ministerio del Interior,299,Ministerio del Interior,x_DNCP-SICP-CODE,2019.12.3,Ministerio del Interior,PY-PGN,buyer
es,ocds-03ad3f-357167,357167-adquisicion-pinturas-colorantes-otros-1-1556789618,x_DNCP-SICP-CODE-299,Ministerio del Interior,299,Ministerio del Interior,x_DNCP-SICP-CODE,2019.12.3,Ministerio del Interior,PY-PGN,buyer
es,ocds-03ad3f-357602,357602-adquisicion-servicios-gastronomicos-1-1559237895,x_DNCP-SICP-CODE-226,Universidad Nacional de Asunción (UNA),226,Universidad Nacional de Asunción (UNA),x_DNCP-SICP-CODE,2019.28.1,Universidad Nacional de Asunción,PY-PGN,buyer
es,ocds-03ad3f-358628,358628-adquisicion-periodicos-1-1558029322,x_DNCP-SICP-CODE-301,Presidencia de la República,301,Presidencia de la República,x_DNCP-SICP-CODE,2019.12.1,Presidencia de la República,PY-PGN,buyer
es,ocds-03ad3f-357158,357158-adquisicion-elementos-limpieza-1-1557511706,x_DNCP-SICP-CODE-299,Ministerio del Interior,299,Ministerio del Interior,x_DNCP-SICP-CODE,2019.12.3,Ministerio del Interior,PY-PGN,buyer
es,ocds-03ad3f-357175,357175-adquisicion-insumos-veterinarios-1-1558712174,x_DNCP-SICP-CODE-299,Ministerio del Interior,299,Ministerio del Interior,x_DNCP-SICP-CODE,2019.12.3,Ministerio del Interior,PY-PGN,buyer
es,ocds-03ad3f-359223,359223-mantenimiento-reparacion-camionetas-1-1559124696,x_DNCP-SICP-CODE-21,Corte Suprema de Justicia (CSJ),21,Corte Suprema de Justicia (CSJ),x_DNCP-SICP-CODE,2019.13.1,Corte Suprema de Justicia,PY-PGN,buyer
es,ocds-03ad3f-354043,354043-servicio-mantenimiento-preventivo-correctivo-central-telefonica-facultad-derecho-cie-1-1558367188,x_DNCP-SICP-CODE-226,Universidad Nacional de Asunción (UNA),226,Universidad Nacional de Asunción (UNA),x_DNCP-SICP-CODE,2019.28.1,Universidad Nacional de Asunción,PY-PGN,buyer
es,ocds-03ad3f-361237,361237-consultoria-documentacion-procedimientos-su-implementacion-sistema-spi-conacyt-1-1558115783,x_DNCP-SICP-CODE-301,Presidencia de la República,301,Presidencia de la República,x_DNCP-SICP-CODE,2019.12.1,Presidencia de la República,PY-PGN,buyer
es,ocds-03ad3f-357813,357813-adquisicion-equipos-informaticos-1-1559066120,x_DNCP-SICP-CODE-226,Universidad Nacional de Asunción (UNA),226,Universidad Nacional de Asunción (UNA),x_DNCP-SICP-CODE,2019.28.1,Universidad Nacional de Asunción,PY-PGN,buyer
es,ocds-03ad3f-361501,361501-seguro-edificio-vehiculos-plurianual-2019-2020-1-1558453681,x_DNCP-SICP-CODE-304,Ministerio de Defensa Nacional (MDN),304,Ministerio de Defensa Nacional (MDN),x_DNCP-SICP-CODE,2019.12.5,Ministerio de Defensa Nacional,PY-PGN,buyer
es,ocds-03ad3f-359222,359222-mantenimiento-reparacion-fotocopiadoras-1-1558116230,x_DNCP-SICP-CODE-21,Corte Suprema de Justicia (CSJ),21,Corte Suprema de Justicia (CSJ),x_DNCP-SICP-CODE,2019.13.1,Corte Suprema de Justicia,PY-PGN,buyer
es,ocds-03ad3f-356346,356346-lpn-n-01-2019-construccion-nueva-sede-quiindy-facultad-enfermeria-obtetricia-univers-1-1559054880,x_DNCP-SICP-CODE-226,Universidad Nacional de Asunción (UNA),226,Universidad Nacional de Asunción (UNA),x_DNCP-SICP-CODE,2019.28.1,Universidad Nacional de Asunción,PY-PGN,buyer
es,ocds-03ad3f-361698,361698-adquisicion-banderas-telas-remeras-1-1558545314,x_DNCP-SICP-CODE-21,Corte Suprema de Justicia (CSJ),21,Corte Suprema de Justicia (CSJ),x_DNCP-SICP-CODE,2019.13.1,Corte Suprema de Justicia,PY-PGN,buyer
es,ocds-03ad3f-356213,356213-adquisicion-sellos-oficina-contrato-abierto-plurianual-1-1557992652,x_DNCP-SICP-CODE-21,Corte Suprema de Justicia (CSJ),21,Corte Suprema de Justicia (CSJ),x_DNCP-SICP-CODE,2019.13.1,Corte Suprema de Justicia,PY-PGN,buyer
es,ocds-03ad3f-356746,356746-adquisicion-pinturas-afines-1-1559206846,x_DNCP-SICP-CODE-21,Corte Suprema de Justicia (CSJ),21,Corte Suprema de Justicia (CSJ),x_DNCP-SICP-CODE,2019.13.1,Corte Suprema de Justicia,PY-PGN,buyer
es,ocds-03ad3f-361202,361202-adquisicion-articulos-ferreteria-facultad-ciencias-medicas-hospital-clinicas-1-1558633439,x_DNCP-SICP-CODE-226,Universidad Nacional de Asunción (UNA),226,Universidad Nacional de Asunción (UNA),x_DNCP-SICP-CODE,2019.28.1,Universidad Nacional de Asunción,PY-PGN,buyer
es,ocds-03ad3f-356657,356657-alquiler-fotocopiadora-1-1558346050,x_DNCP-SICP-CODE-230,Universidad Nacional del Este (UNE),230,Universidad Nacional del Este (UNE),x_DNCP-SICP-CODE,2019.28.2,Universidad Nacional del Este,PY-PGN,buyer
es,ocds-03ad3f-357929,357929-adquisicion-pasajes-aereos-terrestres-nacional-e-internacional-1-1559042075,x_DNCP-SICP-CODE-21,Corte Suprema de Justicia (CSJ),21,Corte Suprema de Justicia (CSJ),x_DNCP-SICP-CODE,2019.13.1,Corte Suprema de Justicia,PY-PGN,buyer
es,ocds-03ad3f-360628,360628-adquisicion-recarga-extintores-direccion-general-registro-estado-civil-1-1558977265,x_DNCP-SICP-CODE-11,Ministerio de Justicia  (MJ),11,Ministerio de Justicia  (MJ),x_DNCP-SICP-CODE,2019.12.9,Ministerio de Justicia ,PY-PGN,buyer
es,ocds-03ad3f-360444,360444-servicio-impresion-materiales-carteleria-1-1559047247,x_DNCP-SICP-CODE-301,Presidencia de la República,301,Presidencia de la República,x_DNCP-SICP-CODE,2019.12.1,Presidencia de la República,PY-PGN,buyer
es,ocds-03ad3f-362049,362049-adquisicion-segadoras-sucorjumil-1-1558115693,x_DNCP-SICP-CODE-304,Ministerio de Defensa Nacional (MDN),304,Ministerio de Defensa Nacional (MDN),x_DNCP-SICP-CODE,2019.12.5,Ministerio de Defensa Nacional,PY-PGN,buyer
es,ocds-03ad3f-356580,356580-adquisicion-pasajes-aereos-1-1558365314,x_DNCP-SICP-CODE-21,Corte Suprema de Justicia (CSJ),21,Corte Suprema de Justicia (CSJ),x_DNCP-SICP-CODE,2019.13.1,Corte Suprema de Justicia,PY-PGN,buyer
es,ocds-03ad3f-357137,357137-servicio-publicacion-periodico-1-1556903859.26998,x_DNCP-SICP-CODE-299,Ministerio del Interior,299,Ministerio del Interior,x_DNCP-SICP-CODE,2019.12.3,Ministerio del Interior,PY-PGN,buyer
es,ocds-03ad3f-363561,363561-locacion-determinda-deposito-institucion-1-1557474163,x_DNCP-SICP-CODE-301,Presidencia de la República,301,Presidencia de la República,x_DNCP-SICP-CODE,2019.12.1,Presidencia de la República,PY-PGN,buyer
es,ocds-03ad3f-357161,357161-adquisicion-articulos-electricos-materiales-construccion-1-1558103558,x_DNCP-SICP-CODE-299,Ministerio del Interior,299,Ministerio del Interior,x_DNCP-SICP-CODE,2019.12.3,Ministerio del Interior,PY-PGN,buyer
es,ocds-03ad3f-361093,361093-servicio-seguros-facultad-derecho-ciencias-sociales-una-1-1556812729,x_DNCP-SICP-CODE-226,Universidad Nacional de Asunción (UNA),226,Universidad Nacional de Asunción (UNA),x_DNCP-SICP-CODE,2019.28.1,Universidad Nacional de Asunción,PY-PGN,buyer
es,ocds-03ad3f-357806,357806-adquisicion-articulos-electricos-1-1558604108,x_DNCP-SICP-CODE-226,Universidad Nacional de Asunción (UNA),226,Universidad Nacional de Asunción (UNA),x_DNCP-SICP-CODE,2019.28.1,Universidad Nacional de Asunción,PY-PGN,buyer
es,ocds-03ad3f-364729,364729-adquisicion-proyectil-gabimil-1-1558719671,x_DNCP-SICP-CODE-301,Presidencia de la República,301,Presidencia de la República,x_DNCP-SICP-CODE,2019.12.1,Presidencia de la República,PY-PGN,buyer
es,ocds-03ad3f-358689,358689-mantenimiento-motor-generador-palacio-justicia-pilar-1-1558365764,x_DNCP-SICP-CODE-21,Corte Suprema de Justicia (CSJ),21,Corte Suprema de Justicia (CSJ),x_DNCP-SICP-CODE,2019.13.1,Corte Suprema de Justicia,PY-PGN,buyer
es,ocds-03ad3f-363841,363841-adquisicion-insulina-servicio-diabetologia-1-1556884957,x_DNCP-SICP-CODE-299,Ministerio del Interior,299,Ministerio del Interior,x_DNCP-SICP-CODE,2019.12.3,Ministerio del Interior,PY-PGN,buyer
es,ocds-03ad3f-364440,364440-adquisicion-productos-alimenticios-1-1558459573,x_DNCP-SICP-CODE-306,Ministerio de Salud Pública y Bienestar Social (MSPBS),306,Ministerio de Salud Pública y Bienestar Social (MSPBS),x_DNCP-SICP-CODE,2019.12.8,Ministerio de Salud Pública y Bienestar Social,PY-PGN,buyer
es,ocds-03ad3f-366016,366016-segundo-llamado-adquisicion-elementos-limpieza-1-1559058219,x_DNCP-SICP-CODE-226,Universidad Nacional de Asunción (UNA),226,Universidad Nacional de Asunción (UNA),x_DNCP-SICP-CODE,2019.28.1,Universidad Nacional de Asunción,PY-PGN,buyer
es,ocds-03ad3f-360949,360949-servicios-publicidad-programa-el-saber-va-contigo-secretaria-nacional-cultura-1-1557134165,x_DNCP-SICP-CODE-301,Presidencia de la República,301,Presidencia de la República,x_DNCP-SICP-CODE,2019.12.1,Presidencia de la República,PY-PGN,buyer
es,ocds-03ad3f-358082,358082-adquisicion-productos-limpieza-1-1558115809,x_DNCP-SICP-CODE-230,Universidad Nacional del Este (UNE),230,Universidad Nacional del Este (UNE),x_DNCP-SICP-CODE,2019.28.2,Universidad Nacional del Este,PY-PGN,buyer
es,ocds-03ad3f-363456,363456-adquisicion-productos-textiles-1-1559238115,x_DNCP-SICP-CODE-306,Ministerio de Salud Pública y Bienestar Social (MSPBS),306,Ministerio de Salud Pública y Bienestar Social (MSPBS),x_DNCP-SICP-CODE,2019.12.8,Ministerio de Salud Pública y Bienestar Social,PY-PGN,buyer
es,ocds-03ad3f-360043,360043-servicio-impresiones-confeccion-agendas-encuadernaciones-fcm-una-1-1558114926,x_DNCP-SICP-CODE-226,Universidad Nacional de Asunción (UNA),226,Universidad Nacional de Asunción (UNA),x_DNCP-SICP-CODE,2019.28.1,Universidad Nacional de Asunción,PY-PGN,buyer
es,ocds-03ad3f-357742,357742-contratacion-seguro-vehiculos-plurianual-1-1557762840,x_DNCP-SICP-CODE-355,"Ministerio de Trabajo, Empleo y Seguridad Social (MTESS)",355,"Ministerio de Trabajo, Empleo y Seguridad Social (MTESS)",x_DNCP-SICP-CODE,2019.12.16,"Ministerio de Trabajo, Empleo y Seguridad Social",PY-PGN,buyer
es,ocds-03ad3f-356376,356376-servicios-provision-colocacion-carteleria-senaletica-otros-snpp-ad-referendum-1-1557248882,x_DNCP-SICP-CODE-355,"Ministerio de Trabajo, Empleo y Seguridad Social (MTESS)",355,"Ministerio de Trabajo, Empleo y Seguridad Social (MTESS)",x_DNCP-SICP-CODE,2019.12.16,"Ministerio de Trabajo, Empleo y Seguridad Social",PY-PGN,buyer
es,ocds-03ad3f-358259,358259-provision-agua-mineral-1-1558374854,x_DNCP-SICP-CODE-301,Presidencia de la República,301,Presidencia de la República,x_DNCP-SICP-CODE,2019.12.1,Presidencia de la República,PY-PGN,buyer
es,ocds-03ad3f-359136,359136-1557246287,x_DNCP-SICP-CODE-226,Universidad Nacional de Asunción (UNA),226,Universidad Nacional de Asunción (UNA),x_DNCP-SICP-CODE,2019.28.1,Universidad Nacional de Asunción,PY-PGN,buyer
es,ocds-03ad3f-358233,358233-03-servicio-mantenimiento-edificios-pintura-reparaciones-techo-otros-1-1558624781,x_DNCP-SICP-CODE-230,Universidad Nacional del Este (UNE),230,Universidad Nacional del Este (UNE),x_DNCP-SICP-CODE,2019.28.2,Universidad Nacional del Este,PY-PGN,buyer
es,ocds-03ad3f-363252,363252-adquisicion-aceites-lubricantes-varios-1-1559206714,x_DNCP-SICP-CODE-21,Corte Suprema de Justicia (CSJ),21,Corte Suprema de Justicia (CSJ),x_DNCP-SICP-CODE,2019.13.1,Corte Suprema de Justicia,PY-PGN,buyer
es,ocds-03ad3f-363845,363845-adquisicion-traje-gala-azul-1-1558028160,x_DNCP-SICP-CODE-304,Ministerio de Defensa Nacional (MDN),304,Ministerio de Defensa Nacional (MDN),x_DNCP-SICP-CODE,2019.12.5,Ministerio de Defensa Nacional,PY-PGN,buyer
es,ocds-03ad3f-356383,356383-servicios-guarderia-snpp-plurianual-ad-referendum-1-1558433663,x_DNCP-SICP-CODE-355,"Ministerio de Trabajo, Empleo y Seguridad Social (MTESS)",355,"Ministerio de Trabajo, Empleo y Seguridad Social (MTESS)",x_DNCP-SICP-CODE,2019.12.16,"Ministerio de Trabajo, Empleo y Seguridad Social",PY-PGN,buyer
es,ocds-03ad3f-360737,360737-servicio-limpieza-juzgados-dpto-central-1-1558948399,x_DNCP-SICP-CODE-21,Corte Suprema de Justicia (CSJ),21,Corte Suprema de Justicia (CSJ),x_DNCP-SICP-CODE,2019.13.1,Corte Suprema de Justicia,PY-PGN,buyer
es,ocds-03ad3f-364866,364866-mantenimiento-reparacion-maquinarias-zapateria-1-1558972777,x_DNCP-SICP-CODE-304,Ministerio de Defensa Nacional (MDN),304,Ministerio de Defensa Nacional (MDN),x_DNCP-SICP-CODE,2019.12.5,Ministerio de Defensa Nacional,PY-PGN,buyer
es,ocds-03ad3f-361090,361090-1558003005,x_DNCP-SICP-CODE-306,Ministerio de Salud Pública y Bienestar Social (MSPBS),306,Ministerio de Salud Pública y Bienestar Social (MSPBS),x_DNCP-SICP-CODE,2019.12.8,Ministerio de Salud Pública y Bienestar Social,PY-PGN,buyer
es,ocds-03ad3f-359261,359261-consultoria-asesoramiento-analisis-planificacion-coordinacion-comunicacion-sinafocal-1-1559149546,x_DNCP-SICP-CODE-355,"Ministerio de Trabajo, Empleo y Seguridad Social (MTESS)",355,"Ministerio de Trabajo, Empleo y Seguridad Social (MTESS)",x_DNCP-SICP-CODE,2019.12.16,"Ministerio de Trabajo, Empleo y Seguridad Social",PY-PGN,buyer
es,ocds-03ad3f-365404,365404-adquisicion-insumos-metalicos-1-1558541895,x_DNCP-SICP-CODE-304,Ministerio de Defensa Nacional (MDN),304,Ministerio de Defensa Nacional (MDN),x_DNCP-SICP-CODE,2019.12.5,Ministerio de Defensa Nacional,PY-PGN,buyer
es,ocds-03ad3f-354855,354855-servicio-limpieza-oficina-central-regionales-puestos-control-deposito-ad-referendum-1-1558543572.77,x_DNCP-SICP-CODE-299,Ministerio del Interior,299,Ministerio del Interior,x_DNCP-SICP-CODE,2019.12.3,Ministerio del Interior,PY-PGN,buyer
es,ocds-03ad3f-357144,357144-servicio-impresiones-varias-1-1558023141,x_DNCP-SICP-CODE-299,Ministerio del Interior,299,Ministerio del Interior,x_DNCP-SICP-CODE,2019.12.3,Ministerio del Interior,PY-PGN,buyer
es,ocds-03ad3f-357214,357214-servicios-publicidad-1-1557762579,x_DNCP-SICP-CODE-230,Universidad Nacional del Este (UNE),230,Universidad Nacional del Este (UNE),x_DNCP-SICP-CODE,2019.28.2,Universidad Nacional del Este,PY-PGN,buyer
es,ocds-03ad3f-357163,357163-adquisicion-utensilios-cocina-comedor-1-1557418192,x_DNCP-SICP-CODE-299,Ministerio del Interior,299,Ministerio del Interior,x_DNCP-SICP-CODE,2019.12.3,Ministerio del Interior,PY-PGN,buyer
es,ocds-03ad3f-361781,361781-adquisicion-mamparas-vidrios-maderas-accesorios-facultad-ciencias-veterinarias-unive-1-1559060533,x_DNCP-SICP-CODE-226,Universidad Nacional de Asunción (UNA),226,Universidad Nacional de Asunción (UNA),x_DNCP-SICP-CODE,2019.28.1,Universidad Nacional de Asunción,PY-PGN,buyer
es,ocds-03ad3f-364882,364882-adquisicion-licencia-snpp-ad-referendum-1-1558523226,x_DNCP-SICP-CODE-355,"Ministerio de Trabajo, Empleo y Seguridad Social (MTESS)",355,"Ministerio de Trabajo, Empleo y Seguridad Social (MTESS)",x_DNCP-SICP-CODE,2019.12.16,"Ministerio de Trabajo, Empleo y Seguridad Social",PY-PGN,buyer
es,ocds-03ad3f-356281,356281-servicios-mantenimiento-reparacion-edificio-1-1557403161,x_DNCP-SICP-CODE-301,Presidencia de la República,301,Presidencia de la República,x_DNCP-SICP-CODE,2019.12.1,Presidencia de la República,PY-PGN,buyer
es,ocds-03ad3f-359005,359005-mantenimiento-reparacion-fotocopiadoras-canon-1-1558976210,x_DNCP-SICP-CODE-226,Universidad Nacional de Asunción (UNA),226,Universidad Nacional de Asunción (UNA),x_DNCP-SICP-CODE,2019.28.1,Universidad Nacional de Asunción,PY-PGN,buyer
es,ocds-03ad3f-361717,361717-adquisicion-telefonos-aparatos-fax-1-1558955360,x_DNCP-SICP-CODE-21,Corte Suprema de Justicia (CSJ),21,Corte Suprema de Justicia (CSJ),x_DNCP-SICP-CODE,2019.13.1,Corte Suprema de Justicia,PY-PGN,buyer
es,ocds-03ad3f-361381,361381-provision-e-instalacion-sistema-tratamiento-agua-hospital-clinicas-servicio-pediatri-1-1559224856,x_DNCP-SICP-CODE-226,Universidad Nacional de Asunción (UNA),226,Universidad Nacional de Asunción (UNA),x_DNCP-SICP-CODE,2019.28.1,Universidad Nacional de Asunción,PY-PGN,buyer
es,ocds-03ad3f-362021,362021-mantenimiento-reparaciones-vehiculos-multimarcas-set-mh-1-1557754063,x_DNCP-SICP-CODE-305,Ministerio de Hacienda,305,Ministerio de Hacienda,x_DNCP-SICP-CODE,2019.12.6,Ministerio de Hacienda,PY-PGN,buyer
es,ocds-03ad3f-364948,364948-adquisicion-televisor-acondicionador-aire-congelador-heladera-1-1558461272,x_DNCP-SICP-CODE-304,Ministerio de Defensa Nacional (MDN),304,Ministerio de Defensa Nacional (MDN),x_DNCP-SICP-CODE,2019.12.5,Ministerio de Defensa Nacional,PY-PGN,buyer
es,ocds-03ad3f-364447,364447-recoleccion-basura-comun-ad-referendum-plurianual-1-1559139477,x_DNCP-SICP-CODE-306,Ministerio de Salud Pública y Bienestar Social (MSPBS),306,Ministerio de Salud Pública y Bienestar Social (MSPBS),x_DNCP-SICP-CODE,2019.12.8,Ministerio de Salud Pública y Bienestar Social,PY-PGN,buyer
es,ocds-03ad3f-356298,356298-elementos-e-insumo-limpieza-1-1558950772,x_DNCP-SICP-CODE-230,Universidad Nacional del Este (UNE),230,Universidad Nacional del Este (UNE),x_DNCP-SICP-CODE,2019.28.2,Universidad Nacional del Este,PY-PGN,buyer
es,ocds-03ad3f-357602,357602-adquisicion-servicios-gastronomicos-3-1559237895,x_DNCP-SICP-CODE-226,Universidad Nacional de Asunción (UNA),226,Universidad Nacional de Asunción (UNA),x_DNCP-SICP-CODE,2019.28.1,Universidad Nacional de Asunción,PY-PGN,buyer
es,ocds-03ad3f-357634,357634-adquisicion-utiles-oficina-tintas-toner-produccion-papel-criterios-sustentabilidad-1-1558518446,x_DNCP-SICP-CODE-226,Universidad Nacional de Asunción (UNA),226,Universidad Nacional de Asunción (UNA),x_DNCP-SICP-CODE,2019.28.1,Universidad Nacional de Asunción,PY-PGN,buyer
es,ocds-03ad3f-361465,361465-adquisicion-resmas-papel-criterios-sustentabilidad-1-1557162565,x_DNCP-SICP-CODE-21,Corte Suprema de Justicia (CSJ),21,Corte Suprema de Justicia (CSJ),x_DNCP-SICP-CODE,2019.13.1,Corte Suprema de Justicia,PY-PGN,buyer
es,ocds-03ad3f-354043,354043-servicio-mantenimiento-preventivo-correctivo-central-telefonica-facultad-derecho-cie-3-1558367188,x_DNCP-SICP-CODE-226,Universidad Nacional de Asunción (UNA),226,Universidad Nacional de Asunción (UNA),x_DNCP-SICP-CODE,2019.28.1,Universidad Nacional de Asunción,PY-PGN,buyer
es,ocds-03ad3f-360714,360714-adquisicion-muebles-enseres-1-1557332226,x_DNCP-SICP-CODE-21,Corte Suprema de Justicia (CSJ),21,Corte Suprema de Justicia (CSJ),x_DNCP-SICP-CODE,2019.13.1,Corte Suprema de Justicia,PY-PGN,buyer
es,ocds-03ad3f-361701,361701-adquisicion-productos-artes-graficas-1-1559144628,x_DNCP-SICP-CODE-21,Corte Suprema de Justicia (CSJ),21,Corte Suprema de Justicia (CSJ),x_DNCP-SICP-CODE,2019.13.1,Corte Suprema de Justicia,PY-PGN,buyer
es,ocds-03ad3f-362987,362987-servicio-eventos-protocolares-catering-1-1559144746,x_DNCP-SICP-CODE-21,Corte Suprema de Justicia (CSJ),21,Corte Suprema de Justicia (CSJ),x_DNCP-SICP-CODE,2019.13.1,Corte Suprema de Justicia,PY-PGN,buyer
es,ocds-03ad3f-361647,361647-adquisicion-articulos-ferreteria-1-1558709257,x_DNCP-SICP-CODE-304,Ministerio de Defensa Nacional (MDN),304,Ministerio de Defensa Nacional (MDN),x_DNCP-SICP-CODE,2019.12.5,Ministerio de Defensa Nacional,PY-PGN,buyer
es,ocds-03ad3f-364069,364069-adquisicion-muebles-enseres-ad-referendum-1-1557767264,x_DNCP-SICP-CODE-304,Ministerio de Defensa Nacional (MDN),304,Ministerio de Defensa Nacional (MDN),x_DNCP-SICP-CODE,2019.12.5,Ministerio de Defensa Nacional,PY-PGN,buyer
es,ocds-03ad3f-364270,364270-servicio-alisado-piso-baranda-rampa-1-1558030499,x_DNCP-SICP-CODE-334,Universidad Nacional de Caaguazu (UNCA),334,Universidad Nacional de Caaguazu (UNCA),x_DNCP-SICP-CODE,2019.28.7,Universidad Nacional de Caaguazu,PY-PGN,buyer
es,ocds-03ad3f-358618,358618-adquisicion-utiles-oficina-1-1558632131,x_DNCP-SICP-CODE-334,Universidad Nacional de Caaguazu (UNCA),334,Universidad Nacional de Caaguazu (UNCA),x_DNCP-SICP-CODE,2019.28.7,Universidad Nacional de Caaguazu,PY-PGN,buyer
es,ocds-03ad3f-365473,365473-1558430853,x_DNCP-SICP-CODE-306,Ministerio de Salud Pública y Bienestar Social (MSPBS),306,Ministerio de Salud Pública y Bienestar Social (MSPBS),x_DNCP-SICP-CODE,2019.12.8,Ministerio de Salud Pública y Bienestar Social,PY-PGN,buyer
es,ocds-03ad3f-359220,359220-mantenimiento-obras-civiles-1-1556790580,x_DNCP-SICP-CODE-21,Corte Suprema de Justicia (CSJ),21,Corte Suprema de Justicia (CSJ),x_DNCP-SICP-CODE,2019.13.1,Corte Suprema de Justicia,PY-PGN,buyer
es,ocds-03ad3f-360591,360591-provision-sellos-direccion-general-registro-estado-civil-1-1557762951,x_DNCP-SICP-CODE-11,Ministerio de Justicia  (MJ),11,Ministerio de Justicia  (MJ),x_DNCP-SICP-CODE,2019.12.9,Ministerio de Justicia ,PY-PGN,buyer
es,ocds-03ad3f-344456,344456-adquisicion-juegos-didacticos-centro-cuidado-educacion-infantil-rectorado-universida-1-1557163316,x_DNCP-SICP-CODE-226,Universidad Nacional de Asunción (UNA),226,Universidad Nacional de Asunción (UNA),x_DNCP-SICP-CODE,2019.28.1,Universidad Nacional de Asunción,PY-PGN,buyer
es,ocds-03ad3f-360924,360924-mantenimiento-reparacion-bebederos-electricos-secretaria-nacional-cultura-1-1558355868,x_DNCP-SICP-CODE-301,Presidencia de la República,301,Presidencia de la República,x_DNCP-SICP-CODE,2019.12.1,Presidencia de la República,PY-PGN,buyer
es,ocds-03ad3f-357975,357975-adquisicion-vaca-lechera-1-1559125543,x_DNCP-SICP-CODE-304,Ministerio de Defensa Nacional (MDN),304,Ministerio de Defensa Nacional (MDN),x_DNCP-SICP-CODE,2019.12.5,Ministerio de Defensa Nacional,PY-PGN,buyer
es,ocds-03ad3f-348389,348389-adquisicion-elementos-limpieza-digesa-1-1558545746,x_DNCP-SICP-CODE-306,Ministerio de Salud Pública y Bienestar Social (MSPBS),306,Ministerio de Salud Pública y Bienestar Social (MSPBS),x_DNCP-SICP-CODE,2018.12.8,Ministerio de Salud Pública y Bienestar Social,PY-PGN,buyer
es,ocds-03ad3f-358798,358798-suscripcion-servicios-revista-juridica-legislacion-ley-paraguaya-1-1558542336,x_DNCP-SICP-CODE-21,Corte Suprema de Justicia (CSJ),21,Corte Suprema de Justicia (CSJ),x_DNCP-SICP-CODE,2019.13.1,Corte Suprema de Justicia,PY-PGN,buyer
es,ocds-03ad3f-365540,365540-1557393603,x_DNCP-SICP-CODE-304,Ministerio de Defensa Nacional (MDN),304,Ministerio de Defensa Nacional (MDN),x_DNCP-SICP-CODE,2019.12.5,Ministerio de Defensa Nacional,PY-PGN,buyer
es,ocds-03ad3f-359777,359777-adquisicion-sellos-1-1556812547,x_DNCP-SICP-CODE-21,Corte Suprema de Justicia (CSJ),21,Corte Suprema de Justicia (CSJ),x_DNCP-SICP-CODE,2019.13.1,Corte Suprema de Justicia,PY-PGN,buyer
es,ocds-03ad3f-356642,356642-alquiler-local-regional-senad-concepcion-1-1557402295,x_DNCP-SICP-CODE-301,Presidencia de la República,301,Presidencia de la República,x_DNCP-SICP-CODE,2019.12.1,Presidencia de la República,PY-PGN,buyer
es,ocds-03ad3f-360784,360784-adquicision-electrodomesticos-muebles-facultad-derecho-ciencias-sociales-una-1-1559125358,x_DNCP-SICP-CODE-226,Universidad Nacional de Asunción (UNA),226,Universidad Nacional de Asunción (UNA),x_DNCP-SICP-CODE,2019.28.1,Universidad Nacional de Asunción,PY-PGN,buyer
es,ocds-03ad3f-362304,362304-adquisicion-productos-limpieza-1-1556875462,x_DNCP-SICP-CODE-304,Ministerio de Defensa Nacional (MDN),304,Ministerio de Defensa Nacional (MDN),x_DNCP-SICP-CODE,2019.12.5,Ministerio de Defensa Nacional,PY-PGN,buyer
es,ocds-03ad3f-365594,365594-1557327291,x_DNCP-SICP-CODE-304,Ministerio de Defensa Nacional (MDN),304,Ministerio de Defensa Nacional (MDN),x_DNCP-SICP-CODE,2019.12.5,Ministerio de Defensa Nacional,PY-PGN,buyer
es,ocds-03ad3f-364364,364364-adquisicion-cubiertas-1-1558605388,x_DNCP-SICP-CODE-304,Ministerio de Defensa Nacional (MDN),304,Ministerio de Defensa Nacional (MDN),x_DNCP-SICP-CODE,2019.12.5,Ministerio de Defensa Nacional,PY-PGN,buyer
es,ocds-03ad3f-362983,362983-servicio-lavado-vehiculo-1-1559238200,x_DNCP-SICP-CODE-21,Corte Suprema de Justicia (CSJ),21,Corte Suprema de Justicia (CSJ),x_DNCP-SICP-CODE,2019.13.1,Corte Suprema de Justicia,PY-PGN,buyer
es,ocds-03ad3f-360503,360503-1559210748,x_DNCP-SICP-CODE-226,Universidad Nacional de Asunción (UNA),226,Universidad Nacional de Asunción (UNA),x_DNCP-SICP-CODE,2019.28.1,Universidad Nacional de Asunción,PY-PGN,buyer
es,ocds-03ad3f-364900,364900-adquisicion-baterias-radio-portable-1-1558979010,x_DNCP-SICP-CODE-304,Ministerio de Defensa Nacional (MDN),304,Ministerio de Defensa Nacional (MDN),x_DNCP-SICP-CODE,2019.12.5,Ministerio de Defensa Nacional,PY-PGN,buyer
es,ocds-03ad3f-365487,365487-1557314774,x_DNCP-SICP-CODE-355,"Ministerio de Trabajo, Empleo y Seguridad Social (MTESS)",355,"Ministerio de Trabajo, Empleo y Seguridad Social (MTESS)",x_DNCP-SICP-CODE,2019.12.16,"Ministerio de Trabajo, Empleo y Seguridad Social",PY-PGN,buyer
es,ocds-03ad3f-359701,359701-adquisicion-insumos-limpieza-facultad-ciencias-medicas-hospital-clinicas-2019-2020-1-1558712726,x_DNCP-SICP-CODE-226,Universidad Nacional de Asunción (UNA),226,Universidad Nacional de Asunción (UNA),x_DNCP-SICP-CODE,2019.28.1,Universidad Nacional de Asunción,PY-PGN,buyer
es,ocds-03ad3f-364865,364865-adquisicion-vehiculos-terrestres-uso-militar-1-1559228918,x_DNCP-SICP-CODE-304,Ministerio de Defensa Nacional (MDN),304,Ministerio de Defensa Nacional (MDN),x_DNCP-SICP-CODE,2019.12.5,Ministerio de Defensa Nacional,PY-PGN,buyer
es,ocds-03ad3f-365820,365820-1558001850,x_DNCP-SICP-CODE-301,Presidencia de la República,301,Presidencia de la República,x_DNCP-SICP-CODE,2019.12.1,Presidencia de la República,PY-PGN,buyer
es,ocds-03ad3f-356350,356350-servicios-mantenimiento-reparacion-sedes-edificios-snpp-plurianual-ad-referendum-1-1559044566,x_DNCP-SICP-CODE-355,"Ministerio de Trabajo, Empleo y Seguridad Social (MTESS)",355,"Ministerio de Trabajo, Empleo y Seguridad Social (MTESS)",x_DNCP-SICP-CODE,2019.12.16,"Ministerio de Trabajo, Empleo y Seguridad Social",PY-PGN,buyer
es,ocds-03ad3f-359217,359217-adquisicion-muebles-enseres-ad-referendum-1-1558374338,x_DNCP-SICP-CODE-21,Corte Suprema de Justicia (CSJ),21,Corte Suprema de Justicia (CSJ),x_DNCP-SICP-CODE,2019.13.1,Corte Suprema de Justicia,PY-PGN,buyer
es,ocds-03ad3f-361347,361347-adquisicion-muebles-enseres-ad-referendum-1-1558972108,x_DNCP-SICP-CODE-304,Ministerio de Defensa Nacional (MDN),304,Ministerio de Defensa Nacional (MDN),x_DNCP-SICP-CODE,2019.12.5,Ministerio de Defensa Nacional,PY-PGN,buyer
es,ocds-03ad3f-363270,363270-alquiler-inmueble-determinado-oficinas-administrativas-snpp-plurianual-1-1556818820,x_DNCP-SICP-CODE-355,"Ministerio de Trabajo, Empleo y Seguridad Social (MTESS)",355,"Ministerio de Trabajo, Empleo y Seguridad Social (MTESS)",x_DNCP-SICP-CODE,2019.12.16,"Ministerio de Trabajo, Empleo y Seguridad Social",PY-PGN,buyer
es,ocds-03ad3f-356853,356853-productos-papel-carton-1-1558443323,x_DNCP-SICP-CODE-230,Universidad Nacional del Este (UNE),230,Universidad Nacional del Este (UNE),x_DNCP-SICP-CODE,2019.28.2,Universidad Nacional del Este,PY-PGN,buyer
es,ocds-03ad3f-358502,358502-adquisicion-servicios-graficos-1-1558449675,x_DNCP-SICP-CODE-334,Universidad Nacional de Caaguazu (UNCA),334,Universidad Nacional de Caaguazu (UNCA),x_DNCP-SICP-CODE,2019.28.7,Universidad Nacional de Caaguazu,PY-PGN,buyer
es,ocds-03ad3f-360500,360500-adquisicion-equipos-computacion-impresoras-otros-1-1558632547,x_DNCP-SICP-CODE-21,Corte Suprema de Justicia (CSJ),21,Corte Suprema de Justicia (CSJ),x_DNCP-SICP-CODE,2019.13.1,Corte Suprema de Justicia,PY-PGN,buyer
es,ocds-03ad3f-359231,359231-adquisicion-productos-textiles-ad-referendum-1-1558515606,x_DNCP-SICP-CODE-21,Corte Suprema de Justicia (CSJ),21,Corte Suprema de Justicia (CSJ),x_DNCP-SICP-CODE,2019.13.1,Corte Suprema de Justicia,PY-PGN,buyer
es,ocds-03ad3f-365881,365881-1558356983,x_DNCP-SICP-CODE-306,Ministerio de Salud Pública y Bienestar Social (MSPBS),306,Ministerio de Salud Pública y Bienestar Social (MSPBS),x_DNCP-SICP-CODE,2019.12.8,Ministerio de Salud Pública y Bienestar Social,PY-PGN,buyer
es,ocds-03ad3f-361720,361720-adquisicion-muebles-1-1558685484,x_DNCP-SICP-CODE-21,Corte Suprema de Justicia (CSJ),21,Corte Suprema de Justicia (CSJ),x_DNCP-SICP-CODE,2019.13.1,Corte Suprema de Justicia,PY-PGN,buyer
es,ocds-03ad3f-364350,364350-adquisicion-gastronomicos-varios-casa-matriz-filiales-centro-adiestramiento-servicio-1-1558113214,x_DNCP-SICP-CODE-226,Universidad Nacional de Asunción (UNA),226,Universidad Nacional de Asunción (UNA),x_DNCP-SICP-CODE,2019.28.1,Universidad Nacional de Asunción,PY-PGN,buyer
es,ocds-03ad3f-359269,359269-servicios-mantenimiento-reparacion-fotocopiadoras-1-1557162285,x_DNCP-SICP-CODE-226,Universidad Nacional de Asunción (UNA),226,Universidad Nacional de Asunción (UNA),x_DNCP-SICP-CODE,2019.28.1,Universidad Nacional de Asunción,PY-PGN,buyer
es,ocds-03ad3f-356515,356515-alquiler-edificio-don-carlos-piso-5-1-1556806196,x_DNCP-SICP-CODE-301,Presidencia de la República,301,Presidencia de la República,x_DNCP-SICP-CODE,2019.12.1,Presidencia de la República,PY-PGN,buyer
es,ocds-03ad3f-360851,360851-servicio-internet-alternativo-stp-1-1559045141,x_DNCP-SICP-CODE-301,Presidencia de la República,301,Presidencia de la República,x_DNCP-SICP-CODE,2019.12.1,Presidencia de la República,PY-PGN,buyer
es,ocds-03ad3f-361486,361486-servicio-limpieza-edificio-plurianual-2019-2020-1-1558718725,x_DNCP-SICP-CODE-304,Ministerio de Defensa Nacional (MDN),304,Ministerio de Defensa Nacional (MDN),x_DNCP-SICP-CODE,2019.12.5,Ministerio de Defensa Nacional,PY-PGN,buyer
es,ocds-03ad3f-358316,358316-adquisicion-utiles-oficina-1-1556905593.10443,x_DNCP-SICP-CODE-226,Universidad Nacional de Asunción (UNA),226,Universidad Nacional de Asunción (UNA),x_DNCP-SICP-CODE,2019.28.1,Universidad Nacional de Asunción,PY-PGN,buyer
es,ocds-03ad3f-362250,362250-servicios-provision-e-instalacion-cabelado-estructurado-1-1558023642,x_DNCP-SICP-CODE-301,Presidencia de la República,301,Presidencia de la República,x_DNCP-SICP-CODE,2019.12.1,Presidencia de la República,PY-PGN,buyer
es,ocds-03ad3f-355482,355482-servicio-consultoria-senatur-1-1557157830,x_DNCP-SICP-CODE-301,Presidencia de la República,301,Presidencia de la República,x_DNCP-SICP-CODE,2019.12.1,Presidencia de la República,PY-PGN,buyer
es,ocds-03ad3f-355853,355853-adquisicion-descartables-hospital-clinicas-1-1558448660,x_DNCP-SICP-CODE-226,Universidad Nacional de Asunción (UNA),226,Universidad Nacional de Asunción (UNA),x_DNCP-SICP-CODE,2019.28.1,Universidad Nacional de Asunción,PY-PGN,buyer
es,ocds-03ad3f-358351,358351-adquisicion-equipos-laboratorios-1-1558454099,x_DNCP-SICP-CODE-226,Universidad Nacional de Asunción (UNA),226,Universidad Nacional de Asunción (UNA),x_DNCP-SICP-CODE,2019.28.1,Universidad Nacional de Asunción,PY-PGN,buyer
es,ocds-03ad3f-342377,342377-lpn-n-02-2018-adquisicion-equipos-informaticos-sbe-1-1557326053.01704,x_DNCP-SICP-CODE-21,Corte Suprema de Justicia (CSJ),21,Corte Suprema de Justicia (CSJ),x_DNCP-SICP-CODE,2018.13.1,Corte Suprema de Justicia,PY-PGN,buyer
es,ocds-03ad3f-364459,364459-adquisicion-insecticidas-pinturas-otros-1-1558711516,x_DNCP-SICP-CODE-306,Ministerio de Salud Pública y Bienestar Social (MSPBS),306,Ministerio de Salud Pública y Bienestar Social (MSPBS),x_DNCP-SICP-CODE,2019.12.8,Ministerio de Salud Pública y Bienestar Social,PY-PGN,buyer
es,ocds-03ad3f-365488,365488-servicios-decoraciones-arreglos-florales-ofrendas-florales-cinae-1-1557765374,x_DNCP-SICP-CODE-304,Ministerio de Defensa Nacional (MDN),304,Ministerio de Defensa Nacional (MDN),x_DNCP-SICP-CODE,2019.12.5,Ministerio de Defensa Nacional,PY-PGN,buyer
es,ocds-03ad3f-356591,356591-servicio-mantenimiento-preventivo-correctivo-acondicionadores-aire-juzgados-paz-inte-1-1556818717,x_DNCP-SICP-CODE-21,Corte Suprema de Justicia (CSJ),21,Corte Suprema de Justicia (CSJ),x_DNCP-SICP-CODE,2019.13.1,Corte Suprema de Justicia,PY-PGN,buyer
es,ocds-03ad3f-356947,356947-contratacion-polizas-seguro-vehiculos-oficiales-pgr-1-1559148638,x_DNCP-SICP-CODE-301,Presidencia de la República,301,Presidencia de la República,x_DNCP-SICP-CODE,2019.12.1,Presidencia de la República,PY-PGN,buyer
es,ocds-03ad3f-356950,356950-contratacion-servicios-gastronomicos-alquiler-eventos-1-1558461506,x_DNCP-SICP-CODE-301,Presidencia de la República,301,Presidencia de la República,x_DNCP-SICP-CODE,2019.12.1,Presidencia de la República,PY-PGN,buyer
es,ocds-03ad3f-360761,360761-adquisicion-equipos-informaticos-facultad-derecho-ciencias-sociales-una-1-1557505065,x_DNCP-SICP-CODE-226,Universidad Nacional de Asunción (UNA),226,Universidad Nacional de Asunción (UNA),x_DNCP-SICP-CODE,2019.28.1,Universidad Nacional de Asunción,PY-PGN,buyer
es,ocds-03ad3f-361605,361605-adquisicion-pasajes-aereos-1-1559070085,x_DNCP-SICP-CODE-304,Ministerio de Defensa Nacional (MDN),304,Ministerio de Defensa Nacional (MDN),x_DNCP-SICP-CODE,2019.12.5,Ministerio de Defensa Nacional,PY-PGN,buyer
es,ocds-03ad3f-358765,358765-mantenimiento-fotocopiadoras-1-1557227149,x_DNCP-SICP-CODE-230,Universidad Nacional del Este (UNE),230,Universidad Nacional del Este (UNE),x_DNCP-SICP-CODE,2019.28.2,Universidad Nacional del Este,PY-PGN,buyer
es,ocds-03ad3f-361611,361611-mantenimientos-reparaciones-menores-edificios-locales-1-1558460585,x_DNCP-SICP-CODE-304,Ministerio de Defensa Nacional (MDN),304,Ministerio de Defensa Nacional (MDN),x_DNCP-SICP-CODE,2019.12.5,Ministerio de Defensa Nacional,PY-PGN,buyer
es,ocds-03ad3f-364480,364480-mantenimiento-reparacion-carroceria-camion-mercedes-benz-1-1559149487,x_DNCP-SICP-CODE-301,Presidencia de la República,301,Presidencia de la República,x_DNCP-SICP-CODE,2019.12.1,Presidencia de la República,PY-PGN,buyer
es,ocds-03ad3f-365413,365413-1556818556,x_DNCP-SICP-CODE-301,Presidencia de la República,301,Presidencia de la República,x_DNCP-SICP-CODE,2019.12.1,Presidencia de la República,PY-PGN,buyer
es,ocds-03ad3f-354054,354054-alquiler-inmuebles-facultad-derecho-ciencias-sociales-una-1-1558630284,x_DNCP-SICP-CODE-226,Universidad Nacional de Asunción (UNA),226,Universidad Nacional de Asunción (UNA),x_DNCP-SICP-CODE,2019.28.1,Universidad Nacional de Asunción,PY-PGN,buyer
es,ocds-03ad3f-357211,357211-recarga-extintores-1-1557419569,x_DNCP-SICP-CODE-230,Universidad Nacional del Este (UNE),230,Universidad Nacional del Este (UNE),x_DNCP-SICP-CODE,2019.28.2,Universidad Nacional del Este,PY-PGN,buyer
es,ocds-03ad3f-361633,361633-adquisicion-productos-papel-carton-1-1558541670,x_DNCP-SICP-CODE-304,Ministerio de Defensa Nacional (MDN),304,Ministerio de Defensa Nacional (MDN),x_DNCP-SICP-CODE,2019.12.5,Ministerio de Defensa Nacional,PY-PGN,buyer
es,ocds-03ad3f-364546,364546-servicio-montaje-stand-ferias-nacionales-expos-santa-rita-hotel-rodeo-central-yguazu-1-1557733486,x_DNCP-SICP-CODE-301,Presidencia de la República,301,Presidencia de la República,x_DNCP-SICP-CODE,2019.12.1,Presidencia de la República,PY-PGN,buyer
es,ocds-03ad3f-365822,365822-1558027193,x_DNCP-SICP-CODE-301,Presidencia de la República,301,Presidencia de la República,x_DNCP-SICP-CODE,2019.12.1,Presidencia de la República,PY-PGN,buyer
es,ocds-03ad3f-359933,359933-adquisicion-impresora-carnet-pvc-rectorado-universidad-nacional-asuncion-1-1556872362,x_DNCP-SICP-CODE-226,Universidad Nacional de Asunción (UNA),226,Universidad Nacional de Asunción (UNA),x_DNCP-SICP-CODE,2019.28.1,Universidad Nacional de Asunción,PY-PGN,buyer
es,ocds-03ad3f-365960,365960-1558440752,x_DNCP-SICP-CODE-334,Universidad Nacional de Caaguazu (UNCA),334,Universidad Nacional de Caaguazu (UNCA),x_DNCP-SICP-CODE,2019.28.7,Universidad Nacional de Caaguazu,PY-PGN,buyer
es,ocds-03ad3f-357606,357606-servicios-ceremonial-protocolo-catering-1-1557161634,x_DNCP-SICP-CODE-301,Presidencia de la República,301,Presidencia de la República,x_DNCP-SICP-CODE,2019.12.1,Presidencia de la República,PY-PGN,buyer
es,ocds-03ad3f-363410,363410-servicio-mantenimiento-reparaciones-menores-sede-juzgados-primera-instancia-yby-yau-1-1558028566,x_DNCP-SICP-CODE-21,Corte Suprema de Justicia (CSJ),21,Corte Suprema de Justicia (CSJ),x_DNCP-SICP-CODE,2019.13.1,Corte Suprema de Justicia,PY-PGN,buyer
es,ocds-03ad3f-355509,355509-adquisicion-herramientas-menores-insumos-materiales-construccion-1-1559205244,x_DNCP-SICP-CODE-226,Universidad Nacional de Asunción (UNA),226,Universidad Nacional de Asunción (UNA),x_DNCP-SICP-CODE,2019.28.1,Universidad Nacional de Asunción,PY-PGN,buyer
es,ocds-03ad3f-353830,353830-adquisicion-equipos-informaticos-senatur-1-1558699618,x_DNCP-SICP-CODE-301,Presidencia de la República,301,Presidencia de la República,x_DNCP-SICP-CODE,2019.12.1,Presidencia de la República,PY-PGN,buyer
es,ocds-03ad3f-365426,365426-1556795274,x_DNCP-SICP-CODE-306,Ministerio de Salud Pública y Bienestar Social (MSPBS),306,Ministerio de Salud Pública y Bienestar Social (MSPBS),x_DNCP-SICP-CODE,2019.12.8,Ministerio de Salud Pública y Bienestar Social,PY-PGN,buyer
es,ocds-03ad3f-365983,365983-1558544874,x_DNCP-SICP-CODE-306,Ministerio de Salud Pública y Bienestar Social (MSPBS),306,Ministerio de Salud Pública y Bienestar Social (MSPBS),x_DNCP-SICP-CODE,2019.12.8,Ministerio de Salud Pública y Bienestar Social,PY-PGN,buyer
es,ocds-03ad3f-357169,357169-adquisicion-instrumentales-medicos-e-insumos-criminalistica-1-1557511819,x_DNCP-SICP-CODE-299,Ministerio del Interior,299,Ministerio del Interior,x_DNCP-SICP-CODE,2019.12.3,Ministerio del Interior,PY-PGN,buyer
es,ocds-03ad3f-357878,357878-servicios-mantenimientos-general-1-1558460464,x_DNCP-SICP-CODE-230,Universidad Nacional del Este (UNE),230,Universidad Nacional del Este (UNE),x_DNCP-SICP-CODE,2019.28.2,Universidad Nacional del Este,PY-PGN,buyer
es,ocds-03ad3f-362749,362749-servicio-limpieza-mantenimiento-agua-pileta-centro-acuatico-nacional-1-1557337174,x_DNCP-SICP-CODE-301,Presidencia de la República,301,Presidencia de la República,x_DNCP-SICP-CODE,2019.12.1,Presidencia de la República,PY-PGN,buyer
es,ocds-03ad3f-358273,358273-adquisicion-articulos-materiales-electricos-1-1556905774,x_DNCP-SICP-CODE-304,Ministerio de Defensa Nacional (MDN),304,Ministerio de Defensa Nacional (MDN),x_DNCP-SICP-CODE,2019.12.5,Ministerio de Defensa Nacional,PY-PGN,buyer
es,ocds-03ad3f-362040,362040-mantenimiento-acondicionadores-aire-set-mh-1-1559147676,x_DNCP-SICP-CODE-305,Ministerio de Hacienda,305,Ministerio de Hacienda,x_DNCP-SICP-CODE,2019.12.6,Ministerio de Hacienda,PY-PGN,buyer
es,ocds-03ad3f-343102,343102-servicio-catering-eventos-digesa-1-1559147551,x_DNCP-SICP-CODE-306,Ministerio de Salud Pública y Bienestar Social (MSPBS),306,Ministerio de Salud Pública y Bienestar Social (MSPBS),x_DNCP-SICP-CODE,2018.12.8,Ministerio de Salud Pública y Bienestar Social,PY-PGN,buyer
es,ocds-03ad3f-358231,358231-01-servicio-correo-nacional-1-1558699587,x_DNCP-SICP-CODE-230,Universidad Nacional del Este (UNE),230,Universidad Nacional del Este (UNE),x_DNCP-SICP-CODE,2019.28.2,Universidad Nacional del Este,PY-PGN,buyer
es,ocds-03ad3f-359885,359885-adquisicion-articulos-electricos-bateria-ups-1-1559064313,x_DNCP-SICP-CODE-21,Corte Suprema de Justicia (CSJ),21,Corte Suprema de Justicia (CSJ),x_DNCP-SICP-CODE,2019.13.1,Corte Suprema de Justicia,PY-PGN,buyer
es,ocds-03ad3f-364352,364352-adquisicion-articulos-ferreteria-plomeria-materiales-construccion-1-1557335451,x_DNCP-SICP-CODE-304,Ministerio de Defensa Nacional (MDN),304,Ministerio de Defensa Nacional (MDN),x_DNCP-SICP-CODE,2019.12.5,Ministerio de Defensa Nacional,PY-PGN,buyer
es,ocds-03ad3f-365179,365179-adquisicion-e-instalacion-camaras-seguridad-1-1557331065,x_DNCP-SICP-CODE-299,Ministerio del Interior,299,Ministerio del Interior,x_DNCP-SICP-CODE,2019.12.3,Ministerio del Interior,PY-PGN,buyer
es,ocds-03ad3f-359177,359177-contratacion-servicios-seguridad-vigilancia-1-1557992801,x_DNCP-SICP-CODE-355,"Ministerio de Trabajo, Empleo y Seguridad Social (MTESS)",355,"Ministerio de Trabajo, Empleo y Seguridad Social (MTESS)",x_DNCP-SICP-CODE,2019.12.16,"Ministerio de Trabajo, Empleo y Seguridad Social",PY-PGN,buyer
es,ocds-03ad3f-365678,365678-1557392369,x_DNCP-SICP-CODE-306,Ministerio de Salud Pública y Bienestar Social (MSPBS),306,Ministerio de Salud Pública y Bienestar Social (MSPBS),x_DNCP-SICP-CODE,2019.12.8,Ministerio de Salud Pública y Bienestar Social,PY-PGN,buyer
es,ocds-03ad3f-355696,355696-mantenimiento-equipos-biomedicos-varios-provision-repuestos-compatibles-ad-referendu-1-1558116282,x_DNCP-SICP-CODE-226,Universidad Nacional de Asunción (UNA),226,Universidad Nacional de Asunción (UNA),x_DNCP-SICP-CODE,2019.28.1,Universidad Nacional de Asunción,PY-PGN,buyer
es,ocds-03ad3f-352057,352057-servicio-mantenimiento-reparacion-acondicionadores-aire-1-1558545667,x_DNCP-SICP-CODE-301,Presidencia de la República,301,Presidencia de la República,x_DNCP-SICP-CODE,2019.12.1,Presidencia de la República,PY-PGN,buyer
es,ocds-03ad3f-358828,358828-adquisicion-repuestos-accesorios-menores-ad-referendum-1-1558969367,x_DNCP-SICP-CODE-21,Corte Suprema de Justicia (CSJ),21,Corte Suprema de Justicia (CSJ),x_DNCP-SICP-CODE,2019.13.1,Corte Suprema de Justicia,PY-PGN,buyer
es,ocds-03ad3f-358772,358772-servicio-fumigacion-limpieza-1-1557765493,x_DNCP-SICP-CODE-21,Corte Suprema de Justicia (CSJ),21,Corte Suprema de Justicia (CSJ),x_DNCP-SICP-CODE,2019.13.1,Corte Suprema de Justicia,PY-PGN,buyer
es,ocds-03ad3f-361351,361351-adquisicion-insumos-limpieza-1-1559238104,x_DNCP-SICP-CODE-334,Universidad Nacional de Caaguazu (UNCA),334,Universidad Nacional de Caaguazu (UNCA),x_DNCP-SICP-CODE,2019.28.7,Universidad Nacional de Caaguazu,PY-PGN,buyer
es,ocds-03ad3f-361707,361707-adquisicion-papeleria-con-criterios-sustentabilidad-utiles-oficina-1-1559065713,x_DNCP-SICP-CODE-21,Corte Suprema de Justicia (CSJ),21,Corte Suprema de Justicia (CSJ),x_DNCP-SICP-CODE,2019.13.1,Corte Suprema de Justicia,PY-PGN,buyer
es,ocds-03ad3f-357354,357354-servicio-alquiler-fotocopiadoras-1-1556906876,x_DNCP-SICP-CODE-301,Presidencia de la República,301,Presidencia de la República,x_DNCP-SICP-CODE,2019.12.1,Presidencia de la República,PY-PGN,buyer
es,ocds-03ad3f-359282,359282-servicios-publicidad-medios-periodisticos-escritos-1-1558370724,x_DNCP-SICP-CODE-226,Universidad Nacional de Asunción (UNA),226,Universidad Nacional de Asunción (UNA),x_DNCP-SICP-CODE,2019.28.1,Universidad Nacional de Asunción,PY-PGN,buyer
es,ocds-03ad3f-360543,360543-servicio-fumigacion-sede-central-edificio-direccion-general-registro-estado-civil-ll-1-1558961572,x_DNCP-SICP-CODE-11,Ministerio de Justicia  (MJ),11,Ministerio de Justicia  (MJ),x_DNCP-SICP-CODE,2019.12.9,Ministerio de Justicia ,PY-PGN,buyer
es,ocds-03ad3f-361621,361621-servicios-publicidad-propaganda-1-1557250211,x_DNCP-SICP-CODE-304,Ministerio de Defensa Nacional (MDN),304,Ministerio de Defensa Nacional (MDN),x_DNCP-SICP-CODE,2019.12.5,Ministerio de Defensa Nacional,PY-PGN,buyer
es,ocds-03ad3f-364467,364467-mantenimiento-reparacion-vehiculos-1-1559230372,x_DNCP-SICP-CODE-304,Ministerio de Defensa Nacional (MDN),304,Ministerio de Defensa Nacional (MDN),x_DNCP-SICP-CODE,2019.12.5,Ministerio de Defensa Nacional,PY-PGN,buyer
es,ocds-03ad3f-356625,356625-adquisicion-tintas-toner-1-1559228814,x_DNCP-SICP-CODE-301,Presidencia de la República,301,Presidencia de la República,x_DNCP-SICP-CODE,2019.12.1,Presidencia de la República,PY-PGN,buyer
es,ocds-03ad3f-352141,352141-adquisicion-utiles-oficina-articulos-papel-carton-e-impresos-criterios-sustentabilid-1-1558030432,x_DNCP-SICP-CODE-301,Presidencia de la República,301,Presidencia de la República,x_DNCP-SICP-CODE,2019.12.1,Presidencia de la República,PY-PGN,buyer
es,ocds-03ad3f-357246,357246-adquisicion-insumos-ferreteria-materiales-electricos-baterias-1-1559238533,x_DNCP-SICP-CODE-301,Presidencia de la República,301,Presidencia de la República,x_DNCP-SICP-CODE,2019.12.1,Presidencia de la República,PY-PGN,buyer
es,ocds-03ad3f-358857,358857-limpieza-poda-areas-verdes-sedes-san-lorenzo-sajonia-campana-dengue-1-1558432524,x_DNCP-SICP-CODE-226,Universidad Nacional de Asunción (UNA),226,Universidad Nacional de Asunción (UNA),x_DNCP-SICP-CODE,2019.28.1,Universidad Nacional de Asunción,PY-PGN,buyer
es,ocds-03ad3f-365421,365421-1556818639,x_DNCP-SICP-CODE-11,Ministerio de Justicia  (MJ),11,Ministerio de Justicia  (MJ),x_DNCP-SICP-CODE,2019.12.9,Ministerio de Justicia ,PY-PGN,buyer
es,ocds-03ad3f-355739,355739-cd-n-01-2019-servicio-reparacion-techado-metalico-juzgado-1-instancia-minga-pora-3-1558952947,x_DNCP-SICP-CODE-21,Corte Suprema de Justicia (CSJ),21,Corte Suprema de Justicia (CSJ),x_DNCP-SICP-CODE,2019.13.1,Corte Suprema de Justicia,PY-PGN,buyer
es,ocds-03ad3f-365108,365108-adquisicion-equipos-transporte-1-1558719571,x_DNCP-SICP-CODE-304,Ministerio de Defensa Nacional (MDN),304,Ministerio de Defensa Nacional (MDN),x_DNCP-SICP-CODE,2019.12.5,Ministerio de Defensa Nacional,PY-PGN,buyer
