language,ocid,id,preQualification/statusDetails,date,initiationType,tag,preQualification/id,preQualification/title,preQualification/enquiryPeriod/endDate,preQualification/enquiryPeriod/startDate,preQualification/submissionMethodDetails,preQualification/awardCriteriaDetails,preQualification/enquiriesAddress/streetAddress,preQualification/eligibilityCriteria,preQualification/clarificationMeetings/0/date,preQualification/clarificationMeetings/0/address/streetAddress,preQualification/clarificationMeetings/0/id,preQualification/participationFees/0/value/amount,preQualification/participationFees/0/value/currency,preQualification/participationFees/0/type,preQualification/participationFees/0/description,tender/procuringEntity/id,tender/procuringEntity/name
es,ocds-03ad3f-2019-627,627-2019-elaboracion-proyecto-ejecutivo-construccion-colectrores-secundarios-alcantarillado,P,2019-05-31T00:00:00Z,tender,tender,2019-627,Elaboracion de Proyecto Ejecutivo y Construccion de Colectrores Secundarios de Alcantarillado Sanitario para la Ciudad de Fernando de la Mora,2019-06-21T09:00:00Z,2019-05-31T00:00:00Z,Lugar entrega ofertas: Mesa de Entrada UOC || Fecha entrega ofertas: 2019-07-03 08:00:00 || Lugar apertura ofertas: Mesa de Entrada UOC,,Mesa de Entrada UOC,,,,1,0,PYG,document,Costo del pliego,x_DNCP-SICP-CODE-18,Empresa de Servicios Sanitarios del Paraguay (ESSAP)
es,ocds-03ad3f-2019-625,625-2019-m-i-n-57-19-servicio-auditoria-externa-proyecto-conectividad-transporte,P,2019-05-07T00:00:00Z,tender,tender,2019-625,M.I.N°57/19 SERVICIO DE AUDITORIA EXTERNA PARA EL PROYECTO CONECTIVIDAD DEL TRANSPORTE,2019-05-24T09:00:00Z,2019-05-07T00:00:00Z,"Lugar entrega ofertas: MESA DE ENTRADA UNICA, OLIVA Y ALBERDI, EDIFICIO CENTRAL DEL M.O.P.C. || Fecha entrega ofertas: 2019-05-31 09:00:00 || Lugar apertura ofertas: SALON DE ACTOS,3ER PISO,EDIFICIO CENTRAL DEL M.O.P.C. OLIVA Y ALBERDI",,"MESA DE ENTRADA UNICA, OLIVA Y ALBERDI, EDIFICIO CENTRAL DEL M.O.P.C.",,,,1,0,PYG,document,Costo del pliego,x_DNCP-SICP-CODE-20,Ministerio de Obras Públicas y Comunicaciones (MOPC)
es,ocds-03ad3f-2019-626,626-2019-servicio-consultoria-fiscalizacion-obras-sistemas-alcantarillado-sanitario-condomi,P,2019-07-11T00:00:00Z,tender,tender,2019-626,"Servicio de Consultoria para la Fiscalizacion de Obras de Sistemas de Alcantarillado Sanitario Condominial y Mejoramiento de Sistemas de Abastecimiento de Agua Potable y la Promoción de Conexiones Intradomiciliarias y en las Ciudades de FRAM, Capitán Mirando e Yhu.",2019-07-16T13:00:00Z,2019-07-11T00:00:00Z,Lugar entrega ofertas: Conforme TDR || Fecha entrega ofertas: 2019-07-23 09:00:00 || Lugar apertura ofertas: Conforme TDR,,Conforme TDR,,,,1,0,PYG,document,Costo del pliego,x_DNCP-SICP-CODE-306,Ministerio de Salud Pública y Bienestar Social (MSPBS)
