ocid,id,contracts/0/id,contracts/0/implementation/milestones/0/id,contracts/0/implementation/milestones/0/documents/0/documentType,contracts/0/implementation/milestones/0/documents/0/id,contracts/0/implementation/milestones/0/documents/0/url,contracts/0/implementation/milestones/0/documents/0/datePublished,contracts/0/implementation/milestones/0/documents/0/language,contracts/0/implementation/milestones/0/documents/0/title,contracts/0/implementation/milestones/0/documents/0/format
ocds-03ad3f-363958,363958-construccion-empedrado-calle-nombre-tramo-2315-2316-cnia-5-yataity-barrio-san-jorge-1-1556903000,363958-ignacio-javier-edwars-rojas-1,acta-recepcion-provisoria-reservas2019-05-23,Acta de Recepción Provisoria,1454d28ea121df29e7684f5b7b0d9bd7,https://www.contrataciones.gov.py/documentos/download/contrato_detalle_entregable/1454d28ea121df29e7684f5b7b0d9bd7,2019-06-03T12:26:32Z,es,acta_de_recepcion_31052019141019_1559579191482.pdf,application/pdf
ocds-03ad3f-361925,361925-construccion-empedrado-calle-virgen-caacupe-tramo-2339-2336-cnia-7-ybyraro-barrio-sa-1-1556902902,361925-castulo-gamarra-rolon-1,acta-recepcion-provisoria-reservas2019-05-14,Acta de Recepción Provisoria,db93e1f9860b074ef224878a047a5407,https://www.contrataciones.gov.py/documentos/download/contrato_detalle_entregable/db93e1f9860b074ef224878a047a5407,2019-06-03T13:00:01Z,es,acta_de_recepcion_31052019143001_1559581200790.pdf,application/pdf
ocds-03ad3f-361936,361936-construccion-empedrado-calle-independencia-nacional-tramo-2526-2527-2528-2529-2841-1-1556902947,361936-ambrosio-coronel-1,acta-recepcion-provisoria-reservas2019-05-18,Acta de Recepción Provisoria,69ebf66b3de72cc233fe47eb0cb8d48f,https://www.contrataciones.gov.py/documentos/download/contrato_detalle_entregable/69ebf66b3de72cc233fe47eb0cb8d48f,2019-06-08T09:45:31Z,es,acta_de_recepcion_31052019140637_1560001531249.pdf,application/pdf
ocds-03ad3f-362788,362788-adquisicion-mobiliarios-sala-audiencia-1-1558975398,362788-maria-asuncion-acevedo-barquinero-1,moviliarios-sala-audiencia2019-06-28,Nota de Remisión,8bdd659454df000dda6721e217aaa204,https://www.contrataciones.gov.py/documentos/download/contrato_detalle_entregable/8bdd659454df000dda6721e217aaa204,2019-07-03T09:58:41Z,es,nota_de_remisi_n101_1562162321088.pdf,application/pdf
ocds-03ad3f-364653,364653-provision-cajas-archivo-1-1557157970,364653-dalmi-srl-1,cajas-cartones-archivo-dalmi-s-r-l-2019-06-26,Nota de Remisión,d92ea9b81f514a1f8c2330f1b579bf21,https://www.contrataciones.gov.py/documentos/download/contrato_detalle_entregable/d92ea9b81f514a1f8c2330f1b579bf21,2019-07-08T14:40:25Z,es,remision_1957_19_orden_53_1562611224905.pdf,application/pdf
ocds-03ad3f-363958,363958-construccion-empedrado-calle-nombre-tramo-2315-2316-cnia-5-yataity-barrio-san-jorge-1-1556903000,363958-ignacio-javier-edwars-rojas-1,acta-recepcion-provisoria-reservas2019-05-23,Acta de Recepción Provisoria,56997398843605ead2cc68303ad69465,https://www.contrataciones.gov.py/documentos/download/contrato_detalle_entregable/56997398843605ead2cc68303ad69465,2019-06-03T12:37:25Z,es,acta_de_recepcion_31052019141019_1559579844754.pdf,application/pdf
ocds-03ad3f-363959,363959-construccion-empedrado-calle-4-octubre-tramo-595-1923-3168-cnia-5-yataity-barrio-san-1-1556903051,363959-ambrosio-coronel-1,acta-recepcion-provisoria-reservas2019-05-15,Acta de Recepción Provisoria,87c7574c5d15873bb3e824068262daa6,https://www.contrataciones.gov.py/documentos/download/contrato_detalle_entregable/87c7574c5d15873bb3e824068262daa6,2019-06-06T12:32:04Z,es,acta_de_recepcion_31052019135755_1559838723458.pdf,application/pdf
ocds-03ad3f-358011,358011-adquisicion-resmas-dinacopa-1-1557762049,358011-kuatiapo-s-a-1,kuatiapo2019-06-21,Nota de Remisión,8afb5804f92f8d5f149bfc66d149aa92,https://www.contrataciones.gov.py/documentos/download/contrato_detalle_entregable/8afb5804f92f8d5f149bfc66d149aa92,2019-07-10T08:24:12Z,es,nota_de_remisi_n_1_1__1562761451926.pdf,application/pdf
ocds-03ad3f-358390,358390-adquisicion-fungicidas-deag-1-1558978801,358390-chemtec-s-a-e-5,acta-entrega2019-06-26,Acta de Entrega,7cb74407125873315ea8225aacd97e6d,https://www.contrataciones.gov.py/documentos/download/contrato_detalle_entregable/7cb74407125873315ea8225aacd97e6d,2019-07-22T13:08:06Z,es,acta_de_recepcion_final_roberto_damanio_becvort_meza_1563815285773.pdf,application/pdf
ocds-03ad3f-358390,358390-adquisicion-fungicidas-deag-1-1558978801,358390-chemtec-s-a-e-5,acta-entrega2019-06-26,Acta de Entrega,ce182c417ca31f93b03690507fa78f83,https://www.contrataciones.gov.py/documentos/download/contrato_detalle_entregable/ce182c417ca31f93b03690507fa78f83,2019-07-22T13:08:06Z,es,acta_de_recepcion_final_roberto_damanio_becvort_meza_1563815285668.pdf,application/pdf
ocds-03ad3f-361936,361936-construccion-empedrado-calle-independencia-nacional-tramo-2526-2527-2528-2529-2841-1-1556902947,361936-ambrosio-coronel-1,certificado-obras-n-12019-05-18,Acta de Entrega,def78796fba346e2de53c5120e3c5cf5,https://www.contrataciones.gov.py/documentos/download/contrato_detalle_entregable/def78796fba346e2de53c5120e3c5cf5,2019-06-08T09:44:45Z,es,certificado_de_obras_08062019152117_1560001485181.pdf,application/pdf
