ocid,id,contracts/0/id,contracts/0/guarantees/0/id,contracts/0/guarantees/0/obligations,contracts/0/guarantees/0/date,contracts/0/guarantees/0/period/startDate,contracts/0/guarantees/0/period/endDate
ocds-03ad3f-359172,ocds-03ad3f-359172-2019-05-23T17:59:37Z,359172-yaguati-sa-1,f0adc8838f4bdedde4ec2cfad0515589,Fiel Cumplimiento,2019-05-30T00:00:00Z,2019-05-30T00:00:00Z,2020-01-30T22:00:00Z
ocds-03ad3f-360372,ocds-03ad3f-360372-2019-05-27T17:45:57Z,360372-molman-s-a-10,bdb106a0560c4e46ccc488ef010af787,Fiel Cumplimiento,2019-06-20T00:00:00Z,2019-06-20T00:00:00Z,2019-07-31T00:00:00Z
ocds-03ad3f-360372,ocds-03ad3f-360372-2019-05-27T17:45:57Z,360372-molman-s-a-4,d516b13671a4179d9b7b458a6ebdeb92,Fiel Cumplimiento,2019-05-27T00:00:00Z,2019-05-24T00:00:00Z,2019-07-31T00:00:00Z
ocds-03ad3f-360372,ocds-03ad3f-360372-2019-05-27T17:45:57Z,360372-office-compu-sa-6,dd8eb9f23fbd362da0e3f4e70b878c16,Fiel Cumplimiento,2019-05-27T00:00:00Z,2019-05-24T00:00:00Z,2020-01-30T22:00:00Z
ocds-03ad3f-355256,ocds-03ad3f-355256-2019-05-07T08:54:33Z,355256-grupo-empresarial-preven-tec-s-a-1,c22abfa379f38b5b0411bc11fa9bf92f,Fiel Cumplimiento,2019-05-22T00:00:00Z,2019-05-08T00:00:00Z,2020-05-07T00:00:00Z
ocds-03ad3f-359922,ocds-03ad3f-359922-2019-05-27T09:17:21Z,359922-embassy-flores-s-r-l-1,d840cc5d906c3e9c84374c8919d2074e,Fiel Cumplimiento,2019-06-07T00:00:00Z,2019-05-27T00:00:00Z,2021-01-30T22:00:00Z
ocds-03ad3f-358998,ocds-03ad3f-358998-2019-05-10T09:28:47Z,358998-colegio-san-roque-gonzalez-santa-cruz-1-1,00ac8ed3b4327bdd4ebbebcb2ba10a00,Endoso - Anticipo,2019-05-19T00:00:00Z,2019-05-08T00:00:00Z,2021-03-07T22:00:00Z
ocds-03ad3f-364943,ocds-03ad3f-364943-2019-05-21T15:04:47Z,364943-centro-tradiciones-gauchas-indio-jose-1,afda332245e2af431fb7b672a68b659d,Fiel Cumplimiento,2019-05-13T00:00:00Z,2019-05-03T00:00:00Z,2019-06-15T00:00:00Z
ocds-03ad3f-359937,ocds-03ad3f-359937-2019-05-29T15:27:08Z,359937-data-systems-sa-emisora-capital-abierto-1,9f53d83ec0691550f7d2507d57f4f5a2,Fiel Cumplimiento,2019-06-06T00:00:00Z,2019-06-16T00:00:00Z,2021-01-30T22:00:00Z
ocds-03ad3f-363958,ocds-03ad3f-363958-2019-05-03T17:03:20Z,363958-ignacio-javier-edwars-rojas-1,b1eec33c726a60554bc78518d5f9b32c,Todo Riesgos en Zona de Obras,2019-06-03T00:00:00Z,2019-04-24T00:00:00Z,2019-09-21T00:00:00Z
ocds-03ad3f-363958,ocds-03ad3f-363958-2019-05-03T17:03:20Z,363958-ignacio-javier-edwars-rojas-1,afd4836712c5e77550897e25711e1d96,Fiel Cumplimiento,2019-05-03T00:00:00Z,2019-04-23T00:00:00Z,2019-09-20T00:00:00Z
ocds-03ad3f-363958,ocds-03ad3f-363958-2019-05-03T17:03:20Z,363958-ignacio-javier-edwars-rojas-1,b4a528955b84f584974e92d025a75d1f,Accidentes Personales,2019-05-03T00:00:00Z,2019-04-24T00:00:00Z,2019-09-21T00:00:00Z
ocds-03ad3f-363958,ocds-03ad3f-363958-2019-05-03T17:03:20Z,363958-ignacio-javier-edwars-rojas-1,e5841df2166dd424a57127423d276bbe,Daños a Terceros,2019-05-03T00:00:00Z,2019-04-24T00:00:00Z,2019-09-21T00:00:00Z
ocds-03ad3f-364868,ocds-03ad3f-364868-2019-05-21T14:39:02Z,364868-j-l-compania-sociedad-anonima-1,f9028faec74be6ec9b852b0a542e2f39,Fiel Cumplimiento,2019-06-11T00:00:00Z,2019-05-31T00:00:00Z,2019-08-31T00:00:00Z
ocds-03ad3f-359873,ocds-03ad3f-359873-2019-05-27T08:57:04Z,359873-neri-javier-caballero-paez-1,afdec7005cc9f14302cd0474fd0f3c96,Fiel Cumplimiento,2019-06-20T00:00:00Z,2019-06-20T00:00:00Z,2021-01-30T22:00:00Z
ocds-03ad3f-364083,ocds-03ad3f-364083-2019-05-23T17:50:16Z,364083-equifax-paraguay-s-a-1,d707329bece455a462b58ce00d1194c9,Fiel Cumplimiento,2019-06-18T00:00:00Z,2019-06-07T00:00:00Z,2021-02-06T22:00:00Z
ocds-03ad3f-364420,ocds-03ad3f-364420-2019-05-27T16:49:19Z,364420-carlos-ramon-saldivar-romero-1,4b6538a44a1dfdc2b83477cd76dee98e,Responsabilidad Profesional,2019-06-23T00:00:00Z,2019-06-12T00:00:00Z,2019-10-11T23:00:00Z
ocds-03ad3f-361925,ocds-03ad3f-361925-2019-05-03T17:01:42Z,361925-castulo-gamarra-rolon-1,f64eac11f2cd8f0efa196f8ad173178e,Todo Riesgos en Zona de Obras,2019-05-02T00:00:00Z,2019-04-22T00:00:00Z,2019-12-21T22:00:00Z
ocds-03ad3f-361925,ocds-03ad3f-361925-2019-05-03T17:01:42Z,361925-castulo-gamarra-rolon-1,d6c651ddcd97183b2e40bc464231c962,Fiel Cumplimiento,2019-05-02T00:00:00Z,2019-04-22T00:00:00Z,2019-08-20T00:00:00Z
ocds-03ad3f-361925,ocds-03ad3f-361925-2019-05-03T17:01:42Z,361925-castulo-gamarra-rolon-1,4a47d2983c8bd392b120b627e0e1cab4,Accidentes Personales,2019-06-02T00:00:00Z,2018-07-13T00:00:00Z,2019-07-13T00:00:00Z
ocds-03ad3f-358011,ocds-03ad3f-358011-2019-05-13T15:40:49Z,358011-kuatiapo-s-a-1,dc58e3a306451c9d670adcd37004f48f,Fiel Cumplimiento,2019-06-10T00:00:00Z,2019-05-31T00:00:00Z,2020-01-30T22:00:00Z
ocds-03ad3f-363792,ocds-03ad3f-363792-2019-05-27T08:30:20Z,363792-codelab-s-a-1,c8c41c4a18675a74e01c8a20e8a0f662,Responsabilidad Profesional,2019-06-25T00:00:00Z,2019-06-11T00:00:00Z,2021-12-10T22:00:00Z
ocds-03ad3f-364653,ocds-03ad3f-364653-2019-05-06T15:52:50Z,364653-dalmi-srl-1,d7a728a67d909e714c0774e22cb806f2,Endoso - Anticipo,2019-06-02T00:00:00Z,2019-05-22T00:00:00Z,2020-01-21T22:00:00Z
ocds-03ad3f-361936,ocds-03ad3f-361936-2019-06-07T00:00:00Z,361936-ambrosio-coronel-1,88ae6372cfdc5df69a976e893f4d554b,Todo Riesgos en Zona de Obras,2019-05-02T00:00:00Z,2019-04-22T00:00:00Z,2019-06-22T00:00:00Z
ocds-03ad3f-361936,ocds-03ad3f-361936-2019-06-07T00:00:00Z,361936-ambrosio-coronel-1,eefc9e10ebdc4a2333b42b2dbb8f27b6,Daños a Terceros,2019-05-02T00:00:00Z,2019-04-22T00:00:00Z,2019-06-22T00:00:00Z
ocds-03ad3f-361936,ocds-03ad3f-361936-2019-06-07T00:00:00Z,361936-ambrosio-coronel-1,06997f04a7db92466a2baa6ebc8b872d,Accidentes Personales,2019-05-02T00:00:00Z,2019-04-22T00:00:00Z,2019-06-22T00:00:00Z
ocds-03ad3f-361936,ocds-03ad3f-361936-2019-06-07T00:00:00Z,361936-ambrosio-coronel-1,2ca65f58e35d9ad45bf7f3ae5cfd08f1,Fiel Cumplimiento,2019-05-02T00:00:00Z,2019-04-22T00:00:00Z,2020-01-06T22:00:00Z
ocds-03ad3f-357280,ocds-03ad3f-357280-2019-05-21T16:13:02Z,357280-omni-s-a-1,4e0cb6fb5fb446d1c92ede2ed8780188,Fiel Cumplimiento,2019-06-12T00:00:00Z,2019-05-29T00:00:00Z,2019-07-02T00:00:00Z
ocds-03ad3f-356698,ocds-03ad3f-356698-2019-05-13T15:46:40Z,356698-grupo-icrea-s-r-l-1,5ec91aac30eae62f4140325d09b9afd0,Fiel Cumplimiento,2019-05-31T00:00:00Z,2019-05-30T00:00:00Z,2020-01-30T22:00:00Z
ocds-03ad3f-364992,ocds-03ad3f-364992-2019-05-30T18:05:27Z,364992-dep-mat-fin-srl-1,5c936263f3428a40227908d5a3847c0b,Fiel Cumplimiento,2019-06-20T00:00:00Z,2019-07-11T00:00:00Z,2020-01-30T22:00:00Z
ocds-03ad3f-363959,ocds-03ad3f-363959-2019-05-03T17:04:11Z,363959-ambrosio-coronel-1,e995f98d56967d946471af29d7bf99f1,Fiel Cumplimiento,2019-05-03T00:00:00Z,2019-04-23T00:00:00Z,2020-01-07T22:00:00Z
ocds-03ad3f-363959,ocds-03ad3f-363959-2019-05-03T17:04:11Z,363959-ambrosio-coronel-1,6bc24fc1ab650b25b4114e93a98f1eba,Accidentes Personales,2019-05-03T00:00:00Z,2019-04-23T00:00:00Z,2019-06-23T00:00:00Z
ocds-03ad3f-363959,ocds-03ad3f-363959-2019-05-03T17:04:11Z,363959-ambrosio-coronel-1,6cd67d9b6f0150c77bda2eda01ae484c,Todo Riesgos en Zona de Obras,2019-05-03T00:00:00Z,2019-04-23T00:00:00Z,2019-06-23T00:00:00Z
ocds-03ad3f-363959,ocds-03ad3f-363959-2019-05-03T17:04:11Z,363959-ambrosio-coronel-1,a5cdd4aa0048b187f7182f1b9ce7a6a7,Daños a Terceros,2019-05-03T00:00:00Z,2019-04-23T00:00:00Z,2019-06-23T00:00:00Z
ocds-03ad3f-357456,ocds-03ad3f-357456-2019-05-10T14:25:29Z,357456-paraguay-packaging-s-a-1,d240e3d38a8882ecad8633c8f9c78c9b,Fiel Cumplimiento,2019-06-06T00:00:00Z,2019-06-29T00:00:00Z,2019-11-24T22:00:00Z
ocds-03ad3f-358390,ocds-03ad3f-358390-2019-05-27T17:40:01Z,358390-laura-griselda-sosa-rios-4,8065d07da4a77621450aa84fee5656d9,Fiel Cumplimiento,2019-06-14T00:00:00Z,2019-06-05T00:00:00Z,2020-02-29T22:00:00Z
ocds-03ad3f-358390,ocds-03ad3f-358390-2019-05-27T17:40:01Z,358390-chemtec-s-a-e-5,1ce927f875864094e3906a4a0b5ece68,Fiel Cumplimiento,2019-06-14T00:00:00Z,2019-06-05T00:00:00Z,2020-01-30T22:00:00Z
ocds-03ad3f-358390,ocds-03ad3f-358390-2019-05-27T17:40:01Z,358390-roberto-damiano-becvort-meza-3,eeb69a3cb92300456b6a5f4162093851,Fiel Cumplimiento,2019-06-14T00:00:00Z,2019-06-05T00:00:00Z,2020-01-30T22:00:00Z
ocds-03ad3f-355771,ocds-03ad3f-355771-2019-05-08T10:31:17Z,355771-tera-s-r-l-1,e744f91c29ec99f0e662c9177946c627,Fiel Cumplimiento,2019-05-16T00:00:00Z,2019-06-25T00:00:00Z,2019-12-30T22:00:00Z
ocds-03ad3f-355794,ocds-03ad3f-355794-2019-05-24T08:08:08Z,355794-san-miguel-mns-cia-s-a-2,8f468c873a32bb0619eaeb2050ba45d1,Fiel Cumplimiento,2019-06-12T00:00:00Z,2019-05-29T00:00:00Z,2019-12-30T22:00:00Z
ocds-03ad3f-355794,ocds-03ad3f-355794-2019-05-24T08:08:08Z,355794-automotive-sa-importadora-exportadora-3,6cfe0e6127fa25df2a0ef2ae1067d915,Fiel Cumplimiento,2019-06-14T00:00:00Z,2019-05-31T00:00:00Z,2019-12-30T22:00:00Z
