ocid,Release ID,Tender:Tender ID,Open Contracting ID,Tender:Clarification Meetings:Clarification Meeting Id,Tender:Clarification Meetings:Address:Street address,Tender:Clarification Meetings:Clarification Meeting Date
,ocds-03ad3f-351746-2019-05-28T16:21:35Z,351746-lp1443-18-implementacion-sistemas-proteccion-incendio-depositos-san-lorenzo-1,ocds-03ad3f-351746,1,Sistema SBE,
,ocds-03ad3f-339737-2019-05-10T09:27:37Z,339737-lpn-sbe-17-18-adquisicion-insumos-declarados-desiertos-lpn-144-16-lpn-36-17-cve-11-1,ocds-03ad3f-339737,1,Sistema SBE,
,ocds-03ad3f-355256-2019-05-07T08:54:33Z,355256-garantia-scanner-moviles-1,ocds-03ad3f-355256,1,Sistema SBE,
,ocds-03ad3f-357878-2019-05-21T17:41:04Z,357878-servicios-mantenimientos-general-1,ocds-03ad3f-357878,1,UOC - KM 8 CAMPUS,2019-04-22T08:00:00Z
,ocds-03ad3f-343006-2019-05-02T10:02:30Z,343006-lpn-sbe-62-18-adquisicion-equipos-mobiliarios-enseres-ampliacion-clinica-yrendague-1,ocds-03ad3f-343006,1,Sistema SBE,
,ocds-03ad3f-352483-2019-05-23T16:40:13Z,352483-lpn-sbe-143-18-contratacion-servicios-mantenimiento-preventivo-correctivo-provision-1,ocds-03ad3f-352483,1,Sistema SBE,
,ocds-03ad3f-355367-2019-02-08T16:05:50Z,355367-adquisicion-monitores-electronicos-puesta-tierra-camiones-cisternas-1,ocds-03ad3f-355367,1,Sistema SBE,
,ocds-03ad3f-356425-2019-05-08T15:46:11Z,356425-adquisicion-utiles-oficina-1,ocds-03ad3f-356425,1,Sistema SBE,
,ocds-03ad3f-355026-2019-05-30T13:40:30Z,355026-adquisicion-tintas-toner-fotoconductores-1,ocds-03ad3f-355026,1,Sistema SBE,
,ocds-03ad3f-359553-2019-05-09T09:30:13Z,359553-llamado-mopc-n-26-2019-licitacion-publica-nacional-subasta-baja-electronica-adquisic-1,ocds-03ad3f-359553,1,Sistema SBE,
,ocds-03ad3f-362749-2019-05-08T17:39:34Z,362749-servicio-limpieza-mantenimiento-agua-pileta-centro-acuatico-nacional-1,ocds-03ad3f-362749,1,Sistema SBE,
,ocds-03ad3f-355472-2019-05-07T15:31:53Z,355472-empresas-constructoras-especializadas-obras-viales-rehabilitacion-mantenimiento-carr-1,ocds-03ad3f-355472,1,Eidificio Central del MOPC - Salón de Actos - 3er. Piso,2019-06-06T09:00:00Z
,ocds-03ad3f-358407-2019-05-02T08:00:00Z,358407-lpn-sbe-15-19-contratacion-servicio-tecnico-desarrollo-mantenimiento-sistemas-inform-1,ocds-03ad3f-358407,1,Sistema SBE,
,ocds-03ad3f-358998-2019-05-10T09:28:47Z,358998-contratacion-servicios-profesionales-funcionamiento-espacio-desarrollo-infantil-dncp-5,ocds-03ad3f-358998,1,Sistema SBE,
,ocds-03ad3f-359272-2019-05-16T16:49:36Z,359272-lpn-sbe-28-19-adquisicion-impresoras-scanner-etiquetadoras-ips-1,ocds-03ad3f-359272,1,Sistema SBE,
,ocds-03ad3f-362543-2019-05-23T17:01:06Z,362543-adquisicion-equipos-informaticos-televisor-tres-frentes-1,ocds-03ad3f-362543,1,Sistema SBE,
,ocds-03ad3f-364465-2019-05-28T15:47:25Z,364465-adquisicion-alimentos-personas-plurianual-hospital-trauma-1,ocds-03ad3f-364465,1,Sistema SBE,
,ocds-03ad3f-365224-2019-05-13T11:18:45Z,365224-adquisicion-alcohol-absoluto-1,ocds-03ad3f-365224,1,Sistema SBE,
,ocds-03ad3f-361582-2019-05-22T09:17:21Z,361582-llamado-mopc-n-20-2019-lpn-sbe-adquisicion-equipos-viales-emergencia-vial-rutas-don-1,ocds-03ad3f-361582,1,Sistema SBE,
,ocds-03ad3f-351773-2019-05-21T08:24:53Z,351773-lp1444-18-adquisicion-equipos-medicion-1,ocds-03ad3f-351773,1,Sistema SBE,
,ocds-03ad3f-344322-2019-06-07T00:00:00Z,344322-lpn-sbe-60-18-mantenimiento-sala-maquinas-calderas-provision-repuestos-demanda-hospi-1,ocds-03ad3f-344322,1,Sistema SBE,
,ocds-03ad3f-310273-2019-05-30T16:18:47Z,310273-lpn-sbe-105-16-contratacion-servicios-mantenimiento-preventivo-correctivo-provision-1,ocds-03ad3f-310273,1,Sistema SBE,
,ocds-03ad3f-327416-2019-07-17T00:00:00Z,327416-lpn-sbe-162-18-adquisicion-equipos-informaticos-comunicaciones-hospital-especialidad-1,ocds-03ad3f-327416,1,Sistema SBE,
,ocds-03ad3f-353688-2019-05-30T08:33:49Z,353688-adquisicion-camion-bacheo-acelerado-1,ocds-03ad3f-353688,1,Sistema SBE,
,ocds-03ad3f-356394-2019-02-05T10:57:30Z,356394-adquisicion-almuerzo-escolar-instituciones-educativas-departamento-neembucu-2019-202-1,ocds-03ad3f-356394,1,Sistema SBE,
,ocds-03ad3f-364120-2019-05-27T17:12:05Z,364120-servicio-social-sepelio-1,ocds-03ad3f-364120,1,Municipalidad de San Bernardino,2019-04-11T11:00:00Z
,ocds-03ad3f-356467-2019-05-23T11:21:17Z,356467-adquisicion-software-licencias-1,ocds-03ad3f-356467,1,Sistema SBE,
,ocds-03ad3f-352177-2019-05-06T08:58:59Z,352177-lpn-sbe-53-18-contratacion-servicios-hemodialisis-hospital-regional-ciudad-este-ips-1,ocds-03ad3f-352177,1,Sistema SBE,
,ocds-03ad3f-364065-2019-05-23T15:34:43Z,364065-adquisicion-montaje-parques-infantiles-1,ocds-03ad3f-364065,1,Sistema SBE,
,ocds-03ad3f-345151-2019-05-21T15:59:24Z,345151-contratacion-seguro-todo-riesgo-ad-referendum-1,ocds-03ad3f-345151,1,Sistema SBE,
,ocds-03ad3f-361884-2019-05-27T09:24:15Z,361884-seguro-medico-1,ocds-03ad3f-361884,1,Sistema SBE,
,ocds-03ad3f-358541-2019-05-23T08:06:40Z,358541-adquisicion-merienda-escolar-instituciones-educativas-ad-referendum-plurianual-ejerc-1,ocds-03ad3f-358541,1,GOBERNACIÓN DE AMAMBAY,2019-04-22T10:00:00Z
,ocds-03ad3f-355739-2019-05-27T10:29:07Z,355739-cd-n-01-2019-servicio-reparacion-techado-metalico-juzgado-1-instancia-minga-pora-3,ocds-03ad3f-355739,1,Juzgado de Primera Instancia de Minga Pora (Av. Emiliano R. Fernandez),2019-04-26T09:00:00Z
,ocds-03ad3f-358956-2019-05-13T09:49:51Z,358956-co-n-03-2019-adquisicion-camioneta-sbe-ad-referendum-1,ocds-03ad3f-358956,1,Sistema SBE,
,ocds-03ad3f-355598-2019-05-22T16:28:55Z,355598-mantenimiento-preventivo-correctivo-ascensores-provision-repuestos-sbe-3,ocds-03ad3f-355598,1,Sistema SBE,
,ocds-03ad3f-355608-2019-05-24T12:34:35Z,355608-mantenimiento-reparacion-bovedas-cajas-seguridad-sbe-1,ocds-03ad3f-355608,1,Sistema SBE,
,ocds-03ad3f-360462-2019-05-22T16:30:17Z,360462-servicio-seguridad-vigilancia-varios-edificios-centrales-compania-capital-e-interior-1,ocds-03ad3f-360462,1,Sistema SBE,
,ocds-03ad3f-362252-2019-05-29T12:43:31Z,362252-adquisicion-ups-switchs-soporte-data-center-sala-comunicaciones-1,ocds-03ad3f-362252,1,Sistema SBE,
,ocds-03ad3f-363761-2019-05-24T12:28:48Z,363761-servicios-ceremonial-catering-1,ocds-03ad3f-363761,1,Sistema SBE,
,ocds-03ad3f-364637-2019-05-20T16:32:52Z,364637-adquisicion-leche-entera-pani-mspbs-1,ocds-03ad3f-364637,1,Sistema SBE,
,ocds-03ad3f-364935-2019-05-21T15:19:08Z,364935-servicio-impresion-copiado-1,ocds-03ad3f-364935,1,Sistema SBE,
,ocds-03ad3f-352118-2019-05-27T12:22:02Z,352118-lpn-sbe-147-18-adquisicion-medicamentos-biologicos-biotecnologicos-oncologicos-e-inm-1,ocds-03ad3f-352118,1,Sistema SBE,
,ocds-03ad3f-357167-2019-05-02T09:33:38Z,357167-adquisicion-pinturas-colorantes-otros-1,ocds-03ad3f-357167,1,Sistema SBE,
,ocds-03ad3f-325876-2019-05-09T14:20:25Z,325876-adquisicion-uniformes-funcionarios-direccion-policia-municipal-transito-direccion-po-1,ocds-03ad3f-325876,1,Sistema SBE,
,ocds-03ad3f-360060-2019-05-30T14:18:05Z,360060-servicio-limpieza-integral-1,ocds-03ad3f-360060,1,Sistema SBE,
,ocds-03ad3f-355302-2019-05-06T09:01:39Z,355302-adquisicion-papel-carton-e-impresos-contrato-abierto-plurianual-ad-referendum-1,ocds-03ad3f-355302,1,Sistema SBE,
,ocds-03ad3f-355508-2019-05-24T11:05:31Z,355508-lp1469-18-adquisicion-postes-hormigon-armado-1,ocds-03ad3f-355508,1,Sistema SBE,
,ocds-03ad3f-357980-2019-05-07T10:22:27Z,357980-actualizacion-garantia-extendida-sistema-integrado-identificacion-balistica-policia-1,ocds-03ad3f-357980,1,Sistema SBE,
,ocds-03ad3f-342473-2019-05-22T16:28:09Z,342473-lpn-sbe-38-18-adquisicion-equipos-biomedicos-equipamiento-hospital-san-pedro-ycuaman-1,ocds-03ad3f-342473,1,Sistema SBE,
,ocds-03ad3f-351815-2019-05-03T12:53:32Z,351815-adquisicion-mobiliarios-instituciones-edicativas-fonacide-1,ocds-03ad3f-351815,1,Sistema SBE,
,ocds-03ad3f-360701-2019-05-23T09:32:32Z,360701-renovacion-ampliacion-licencias-soporte-oracle-sistema-marangatu-sifen-set-mh-1,ocds-03ad3f-360701,1,Sistema SBE,
,ocds-03ad3f-357684-2019-05-03T12:43:03Z,357684-servicios-hemodialisis-adultos-asuncion-gran-asuncion-cnel-oviedo-1,ocds-03ad3f-357684,1,Sistema SBE,
,ocds-03ad3f-364235-2019-05-21T15:26:36Z,364235-contratacion-guarda-administracion-gestion-archivos-documentales-bienes-patrimoniale-1,ocds-03ad3f-364235,1,Sistema SBE,
,ocds-03ad3f-362704-2019-05-09T14:56:29Z,362704-adquisicion-bevacizumab-e-infliximab-rituximab-incan-otros-centros-atencion-mspybs-1,ocds-03ad3f-362704,1,Sistema SBE,
,ocds-03ad3f-355602-2019-05-02T11:01:30Z,355602-adquisicion-dispositivos-entintado-billetes-atm-s-bnf-sbe-3,ocds-03ad3f-355602,1,Sistema SBE,
,ocds-03ad3f-355719-2019-05-07T15:54:41Z,355719-adquisicion-compactadores-compresor-martillete-items-declarados-desiertos-lpn-n-04-1,ocds-03ad3f-355719,1,Sistema SBE,
,ocds-03ad3f-358513-2019-05-02T10:01:28Z,358513-lpn-sbe-13-18-adquisicion-equipos-odontologicos-ips-1,ocds-03ad3f-358513,1,Sistema SBE,
,ocds-03ad3f-364806-2019-05-08T16:20:32Z,364806-empresas-fiscalizadoras-especializadas-obras-viales-contrato-ejecucion-obras-rehabil-1,ocds-03ad3f-364806,1,Edificio Central MOPC - 3er. Piso Salón de Actos - Oliva esq. Alberdi,2019-06-07T09:00:00Z
,ocds-03ad3f-365431-2019-05-23T12:32:25Z,365431-adquisicion-equipos-seguridad-red-firewall-1,ocds-03ad3f-365431,1,Sistema SBE,
,ocds-03ad3f-358702-2019-05-23T16:21:06Z,358702-contratacion-servicios-seguridad-vigilancia-1,ocds-03ad3f-358702,1,Sistema SBE,
,ocds-03ad3f-355599-2019-05-30T16:23:50Z,355599-adquisicion-equipos-cctv-sbe-1,ocds-03ad3f-355599,1,Sistema SBE,
,ocds-03ad3f-356474-2019-05-03T14:01:39Z,356474-mejoramiento-entorno-accesibilidad-hospital-regional-encarnacion-1,ocds-03ad3f-356474,1,Oficina de la U.O.C. - Centro Municipal de Arte,2019-05-08T10:00:00Z
,ocds-03ad3f-355790-2019-05-06T16:50:52Z,355790-adquisicion-motocicletas-marco-programa-gestion-integrada-seguridad-ciudadana-1,ocds-03ad3f-355790,1,Sistema SBE,
,ocds-03ad3f-357280-2019-05-21T16:13:02Z,357280-servicio-mantenimiento-scanner-maleta-1,ocds-03ad3f-357280,1,Sistema SBE,
,ocds-03ad3f-357177-2019-03-19T15:04:25Z,357177-adquisicion-proyectiles-materiales-seguridad-1,ocds-03ad3f-357177,1,Sistema SBE,
,ocds-03ad3f-363218-2019-05-20T17:46:44Z,363218-servicio-consultoria-materia-administracion-financiera-contable-1,ocds-03ad3f-363218,1,GOBERNACION DE AMAMBAY - UOC,2019-04-10T10:00:00Z
,ocds-03ad3f-363993-2019-04-01T07:06:06Z,363993-adquisicion-sistema-refrigeracion-central-filtros-h-e-p-a-distribucion-gases-medicin-1,ocds-03ad3f-363993,1,Sistema SBE,
,ocds-03ad3f-357144-2019-05-16T16:12:21Z,357144-servicio-impresiones-varias-1,ocds-03ad3f-357144,1,Sistema SBE,
,ocds-03ad3f-356397-2019-05-17T15:33:18Z,356397-adquisicion-complemento-nutricional-merienda-escolar-leche-instituciones-educativas-1,ocds-03ad3f-356397,1,Sistema SBE,
,ocds-03ad3f-357738-2019-05-27T15:55:12Z,357738-lpn-sbe-09-19-adquisicion-drogas-ips-1,ocds-03ad3f-357738,1,Sistema SBE,
,ocds-03ad3f-357939-2019-05-23T12:01:12Z,357939-lco-sbe-06-19-contratacion-servicio-enlace-transmision-optica-servicio-mantenimiento-1,ocds-03ad3f-357939,1,Sistema SBE,
,ocds-03ad3f-358205-2019-05-02T15:16:34Z,358205-adquisicion-casete-atm-sbe-1,ocds-03ad3f-358205,1,Sistema SBE,
,ocds-03ad3f-358292-2019-05-16T16:44:24Z,358292-construccion-obras-infraestructura-diversas-instituciones-educativas-traves-fondos-1,ocds-03ad3f-358292,1,Oficina de la U.O.C. - Centro Municipal de Arte,2019-06-04T10:00:00Z
,ocds-03ad3f-359710-2019-05-27T16:01:49Z,359710-lpn-sbe-n-01-19-adquisicion-utiles-kits-escolares-plurianual-2019-2020-1,ocds-03ad3f-359710,1,Sistema SBE,
,ocds-03ad3f-358496-2019-05-07T08:56:38Z,358496-provision-almuerzo-escolar-modalidad-alimentos-preparados-escuelas-plurianual-ejerci-1,ocds-03ad3f-358496,1,GOBERNACION DE AMAMBAY - UOC,2019-04-10T10:00:00Z
,ocds-03ad3f-343650-2019-05-10T13:39:55Z,343650-adquisicion-escobillones-1,ocds-03ad3f-343650,1,Sistema SBE,
,ocds-03ad3f-357456-2019-05-10T14:25:29Z,357456-adquisicion-precintos-1,ocds-03ad3f-357456,1,Sistema SBE,
,ocds-03ad3f-363205-2019-05-06T15:57:26Z,363205-servicio-mantenimiento-actualizacion-sistema-informatico-plurianual-1,ocds-03ad3f-363205,1,GOBERNACIÓN DE AMAMBAY - UOC,2019-04-03T10:00:00Z
,ocds-03ad3f-349162-2019-05-07T16:39:04Z,349162-servicio-relevamiento-topografico-lotes-lugar-denominado-maria-auxliadora-1,ocds-03ad3f-349162,1,Sistema SBE,
,ocds-03ad3f-348952-2019-05-06T16:55:18Z,348952-lpn-sbe-117-18-contratacion-servicio-mantenimiento-preventivo-correctivo-ups-i-p-s-1,ocds-03ad3f-348952,1,Sistema SBE,
,ocds-03ad3f-364757-2019-05-30T09:30:45Z,364757-contratacion-seguro-medico-funcionarios-ipta-1,ocds-03ad3f-364757,1,Sistema SBE,
,ocds-03ad3f-357176-2019-05-06T15:30:23Z,357176-adquisicion-cubiertas-plurianual-1,ocds-03ad3f-357176,1,Sistema SBE,
,ocds-03ad3f-365069-2019-05-10T15:17:34Z,365069-llamado-mopc-n-32-2019-licitacion-publica-nacional-subasta-baja-electronica-adquisic-1,ocds-03ad3f-365069,1,Sistema SBE,
,ocds-03ad3f-345990-2019-07-03T00:00:00Z,345990-lpn-sbe-66-18-adquisicion-materiales-varios-ips-1,ocds-03ad3f-345990,1,Sistema SBE,
,ocds-03ad3f-342377-2019-05-08T14:34:13Z,342377-lpn-n-02-2018-adquisicion-equipos-informaticos-sbe-1,ocds-03ad3f-342377,1,Sistema SBE,
,ocds-03ad3f-349551-2019-05-03T07:28:38Z,349551-lpn-sbe-105-18-adquisicion-alimentos-residentes-funcionarios-cream-vida-plena-i-p-s-1,ocds-03ad3f-349551,1,Sistema SBE,
,ocds-03ad3f-353079-2019-05-30T15:27:20Z,353079-adquisicion-lubricantes-direccion-servicios-admisnistrativos-1,ocds-03ad3f-353079,1,Sistema SBE,
,ocds-03ad3f-355603-2019-05-10T15:33:20Z,355603-adquisicion-muebles-equipo-oficina-sbe-1,ocds-03ad3f-355603,1,Sistema SBE,
,ocds-03ad3f-357735-2019-05-27T15:57:30Z,357735-lpn-sbe-10-19-contratacion-servicios-mantenimiento-preventivo-correctivo-provision-1,ocds-03ad3f-357735,1,Sistema SBE,
,ocds-03ad3f-357765-2019-05-27T15:58:29Z,357765-lpn-sbe-17-19-adquisicion-accesorios-varios-gases-medicinales-hospitales-regionales-1,ocds-03ad3f-357765,1,Sistema SBE,
,ocds-03ad3f-359617-2019-05-02T16:12:02Z,359617-lco-sbe-n-02-2019-adquisicion-etiquetas-seguridad-gabinete-ministro-1,ocds-03ad3f-359617,1,Sistema SBE,
